<?xml version="1.0" encoding="UTF-8" standalone="no"?>
<!-- Created with Inkscape (http://www.inkscape.org/) -->

<svg
   xmlns:dc="http://purl.org/dc/elements/1.1/"
   xmlns:cc="http://creativecommons.org/ns#"
   xmlns:rdf="http://www.w3.org/1999/02/22-rdf-syntax-ns#"
   xmlns:svg="http://www.w3.org/2000/svg"
   xmlns="http://www.w3.org/2000/svg"
   xmlns:xlink="http://www.w3.org/1999/xlink"
   xmlns:sodipodi="http://sodipodi.sourceforge.net/DTD/sodipodi-0.dtd"
   xmlns:inkscape="http://www.inkscape.org/namespaces/inkscape"
   id="svg2"
   version="1.1"
   inkscape:version="0.92.2 (5c3e80d, 2017-08-06)"
   width="2481"
   height="3503"
   sodipodi:docname="E24P01.svg">
  <metadata
     id="metadata8">
    <rdf:RDF>
      <cc:Work
         rdf:about="">
        <dc:format>image/svg+xml</dc:format>
        <dc:type
           rdf:resource="http://purl.org/dc/dcmitype/StillImage" />
        <dc:title />
      </cc:Work>
    </rdf:RDF>
  </metadata>
  <defs
     id="defs6">
    <filter
       style="color-interpolation-filters:sRGB"
       id="filter4375-4-1-1-1-9"
       inkscape:label="deevad outline effect">
      <feFlood
         id="feFlood4377-7-9-0-8-1"
         flood-opacity="1"
         flood-color="rgb(0,0,0)"
         result="flood" />
      <feComposite
         id="feComposite4379-3-8-8-2-77"
         in2="SourceGraphic"
         in="flood"
         operator="in"
         result="composite1" />
      <feMorphology
         id="feMorphology4393-1-0-49-8-9"
         operator="dilate"
         radius="4"
         result="result3" />
      <feComposite
         id="feComposite4385-9-5-7-0-8"
         in2="result3"
         in="SourceGraphic"
         operator="over"
         result="composite2" />
    </filter>
  </defs>
  <sodipodi:namedview
     pagecolor="#ffffff"
     bordercolor="#666666"
     borderopacity="1"
     objecttolerance="10"
     gridtolerance="10"
     guidetolerance="10"
     inkscape:pageopacity="0"
     inkscape:pageshadow="2"
     inkscape:window-width="1366"
     inkscape:window-height="715"
     id="namedview4"
     showgrid="false"
     inkscape:zoom="0.49190037"
     inkscape:cx="1388.2606"
     inkscape:cy="584.52587"
     inkscape:window-x="1592"
     inkscape:window-y="124"
     inkscape:window-maximized="1"
     inkscape:current-layer="layer1"
     inkscape:snap-global="false"
     showguides="false" />
  <g
     inkscape:groupmode="layer"
     id="layer2"
     inkscape:label="artwork"
     sodipodi:insensitive="true">
    <image
       sodipodi:absref="G:\Aslan's Works &amp; Design Projects\2. Personal Projects\3. Translation Projects\Pepper &amp; Carrot Translation Project\Episode 24\lang\fa\../gfx_Pepper-and-Carrot_by-David-Revoy_E24P01.png"
       xlink:href="../gfx_Pepper-and-Carrot_by-David-Revoy_E24P01.png"
       y="0"
       x="0"
       id="image10"
       height="3503"
       width="2481" />
  </g>
  <g
     inkscape:groupmode="layer"
     id="layer3"
     inkscape:label="speechbubbles">
    <path
       style="fill:#ffffff;fill-rule:evenodd;stroke:none;stroke-width:0.99999976px;stroke-linecap:butt;stroke-linejoin:miter;stroke-opacity:1"
       d="m 571.76736,444.82799 c 30.84176,10.3778 58.72055,16.82994 49.24232,-26.21365 54.5919,58.4381 46.76071,18.41593 55.39761,4.3689 32.45687,41.28048 60.38338,35.39772 84.63523,-8.73782 13.70993,63.66343 42.39928,32.81806 67.70814,23.30101 -0.0624,17.90316 -6.97204,38.4323 67.70824,27.67002 -21.35304,16.16964 -29.31781,30.84858 18.46587,39.32057 -33.19271,13.00092 -51.42156,26.83488 -15.38828,43.68959 -19.1424,24.55329 -6.33921,39.14523 20.00473,49.51474 -61.68213,1.43599 -69.6922,3.82078 -59.79639,16.5467 -52.51571,-26.16442 -36.99864,-4.56586 -32.53295,15.49224 -24.44301,-11.5063 -42.50959,-38.70257 -86.174,-2.91255 -12.98632,-11.87815 -24.95685,-26.88035 -53.85882,10.19418 -2.03883,-32.33917 -23.16975,-31.12261 -53.85881,-13.10682 -8.09441,-30.32815 -38.48916,-14.92955 -70.78584,4.369 26.36146,-29.60091 28.27173,-54.33009 -23.08233,-68.44696 49.76639,-16.93386 40.70436,-30.59285 21.54351,-43.68949 18.93031,-12.31548 31.27308,-25.73102 -18.46586,-49.51483 29.08114,3.69751 60.04577,8.46458 29.23763,-21.84483 z"
       id="path4582"
       inkscape:connector-curvature="0"
       sodipodi:nodetypes="ccccccccccccccccccc" />
    <path
       style="color:#000000;display:inline;overflow:visible;visibility:visible;fill:#ffffff;fill-opacity:1;fill-rule:nonzero;stroke:none;stroke-width:0.99999994px;marker:none;enable-background:accumulate"
       d="m 1120.4405,700.1743 c -32.2265,-17.97546 -75.6905,-29.21797 -94.8601,-55.01638 l -18.7309,38.20697 c -21.19647,-1.31166 -26.2338,-14.07539 -36.75813,-22.95055 l -18.52445,25.72405 C 902.21848,682.47077 878.08971,666.613 844.32571,653.77368 l -19.93547,22.60875 c 41.44339,8.00317 86.22663,23.6167 121.36515,31.70826 l 22.07602,-17.34663 c 14.0695,3.48337 27.30829,7.5971 36.83679,14.52656 l 23.5694,-31.97386 z"
       id="path4032"
       inkscape:connector-curvature="0"
       sodipodi:nodetypes="cccccccccccc" />
    <path
       style="color:#000000;display:inline;overflow:visible;visibility:visible;fill:#ffffff;fill-opacity:1;fill-rule:nonzero;stroke:none;stroke-width:0.99999994px;marker:none;enable-background:accumulate"
       d="m 1373.3502,1868.2437 c 6.6851,-9.6035 35.5763,-37.7572 31.3268,-2.86 46.4175,-40.2666 78.7953,-19.5262 111.971,-2.2535 11.4973,-12.4731 16.0323,-33.3022 45.1957,-24.5731 -1.9873,-14.0664 9.629,-22.0812 33.3836,-24.6967 -29.027,-12.0387 -33.2191,-21.179 24.6468,-23.0767 -42.759,-6.3379 -82.4984,-13.2357 -27.1003,-37.773 -15.6687,-2.7585 -57.3593,18.2946 -27.5245,-55.0444 -31.1129,20.7342 -62.2582,30.3971 -90.297,-24.8989 -14.441,18.5866 -33.3418,29.9721 -60.9951,-1.4146 -10.1201,18.985 -49.1487,15.6954 -62.7522,9.8432 25.1172,25.8757 21.8709,39.5499 -17.5185,36.7247 58.9158,48.3718 6.4035,35.5263 -5.8106,44.3362 49.1464,20.3406 23.3399,34.5624 11.3904,50.4926 58.9887,8.1069 35.1654,33.0527 34.0839,55.1942 z"
       id="path3549-3"
       inkscape:connector-curvature="0"
       sodipodi:nodetypes="ccccccccccccccc" />
    <path
       style="color:#000000;display:inline;overflow:visible;visibility:visible;fill:#ffffff;fill-opacity:1;fill-rule:nonzero;stroke:none;stroke-width:0.99999988px;marker:none;enable-background:accumulate"
       d="m 1335.6889,1948.0036 c 5.1172,-75.8195 85.041,-136.0769 263.8508,-119.3503 95.7804,8.9596 216.8537,11.5576 210.468,122.6433 -6.3854,111.0853 -174.9845,109.9946 -207.223,112.1526 -32.2388,2.1584 -208.0182,-2.3501 -237.6367,-40.5729 -18.5412,-23.9266 -29.8367,-51.3744 -29.4591,-74.8727 z"
       id="path4546-6"
       inkscape:connector-curvature="0"
       sodipodi:nodetypes="cssssc" />
    <path
       style="color:#000000;display:inline;overflow:visible;visibility:visible;fill:#ffffff;fill-opacity:1;fill-rule:nonzero;stroke:none;stroke-width:1px;marker:none;enable-background:accumulate"
       d="m 1725.1844,1861.3342 c 6.612,11.2759 86.9477,-29.2003 85.8796,-32.4046 0,0 27.5174,7.7754 31.5141,6.9248 1.9994,-6.4636 4.2729,-17.2204 4.2729,-17.2204 l 43.1705,1.271 -34.6999,8.0734 0.1804,21.2585 -36.6531,-7.0896 c -19.044,13.242 -51.208,25.1719 -50.7716,40.3619 z"
       id="path4448"
       inkscape:connector-curvature="0"
       sodipodi:nodetypes="cccccccccc" />
    <path
       style="color:#000000;display:inline;overflow:visible;visibility:visible;fill:#ffffff;fill-opacity:1;fill-rule:nonzero;stroke:none;stroke-width:0.99999994px;marker:none;enable-background:accumulate"
       d="m 27.722148,3129.3252 c 52.384913,9.5518 47.973777,44.4522 33.713736,56.5004 58.617166,-43.0392 95.886066,-29.5332 66.043356,13.7398 101.94047,-59.3986 84.29295,-9.6025 76.81515,17.058 48.55606,-56.6224 81.74616,-36.2518 101.62566,-1.3511 0.48689,-36.2154 62.22952,-38.2335 81.94425,-13.0714 25.57884,-62.4997 52.13877,-43.2211 101.01126,-27.7551 -37.11865,-23.4952 -65.19483,-44.112 34.51549,-74.1768 -53.44149,8.7063 -75.06607,-13.2354 16.80638,-37.5362 -91.08906,-1.1681 -97.49384,-35.1465 -0.76696,-51.053 -93.95011,0.1161 -91.73798,-22.7804 -48.86151,-52.0878 -65.94726,8.1812 -82.37224,-18.7952 -20.79269,-61.9865 -103.20171,38.8577 -108.30047,14.8638 -101.41122,-35.1869 -58.22536,54.8036 -53.42082,29.2696 -65.07513,-22.6566 -12.28009,38.1747 -43.87005,66.7007 -109.11159,22.1355 10.05196,24.8099 10.56966,51.9294 -78.55198,23.6201 47.69221,29.8318 16.58788,69.0032 -122.357939,68.3374 64.829499,19.7124 142.306329,61.445 53.383347,67.5984 35.558225,6.4836 44.875886,24.6287 42.76073,39.3984 -16.015675,4.7498 -37.290447,9.3478 -64.761199,13.8126 51.797329,13.4153 84.665751,30.6605 3.070859,54.6608 z"
       id="path3549-3-7"
       inkscape:connector-curvature="0"
       sodipodi:nodetypes="ccccccccccccccccccccc" />
    <path
       style="fill:#ffffff;stroke:none;stroke-width:1"
       d="m 1312.0471,2636.6402 c 24.8572,-23.3618 23.0898,-34.098 20.1693,-46.0928 -2.9204,-11.9949 -6.7783,-22.4564 -2.996,-29.6912 3.7822,-7.2345 11.9314,-13.7504 18.5182,-17.7105 6.5867,-3.9602 0.6895,-11.8462 0.1992,-20.4782 -0.4905,-8.632 11.6694,-54.4912 11.6694,-54.4912 0,0 15.4128,29.8223 17.3984,40.7257 1.9857,10.9032 2.7616,14.8752 2.4762,19.5352 -0.2855,4.6599 -2.4809,16.1126 -8.3834,22.0982 -5.9026,5.9855 -13.8607,8.5198 -19.1677,11.9592 -5.307,3.4394 -4.2207,13.2301 -3.7625,22.963 0.4583,9.7331 -0.6146,16.9839 -10.2491,30.0137 -8.2583,11.169 -25.872,21.1689 -25.872,21.1689 z"
       id="path3023-2"
       inkscape:connector-curvature="0"
       sodipodi:nodetypes="csssscssssssc" />
    <path
       style="color:#000000;display:inline;overflow:visible;visibility:visible;fill:#ffffff;fill-opacity:1;fill-rule:nonzero;stroke:none;stroke-width:0.99999994px;marker:none;enable-background:accumulate"
       d="m 1316.0029,3034.7179 c 5.2109,-36.069 14.5234,-83.1655 -40.179,-91.5576 2.7742,1.4246 74.681,-16.1526 71.113,92.3401 -3.568,108.4926 -13.868,120.9339 -13.868,120.9339 z"
       id="path4064"
       inkscape:connector-curvature="0"
       sodipodi:nodetypes="ccscc" />
    <path
       style="color:#000000;display:inline;overflow:visible;visibility:visible;fill:#ffffff;fill-opacity:1;fill-rule:nonzero;stroke:none;stroke-width:1px;marker:none;enable-background:accumulate"
       d="m 1077.2562,3295.7847 c -1.1856,-61.9807 37.6091,-99.5237 45.0474,-104.6787 67.1345,-46.525 276.2566,-29.3302 312.9622,2.7546 30.822,26.1698 37.9349,44.0753 34.3784,67.4904 -3.5564,23.4149 -22.5239,85.3957 -66.386,103.3013 -43.8619,17.9055 -145.8117,26.1697 -199.1577,12.3961 -53.3458,-13.7735 -131.5863,-27.5469 -126.8443,-81.2637 z"
       id="path3517"
       inkscape:connector-curvature="0"
       sodipodi:nodetypes="cscsccc" />
    <path
       style="color:#000000;display:inline;overflow:visible;visibility:visible;fill:#ffffff;fill-opacity:1;fill-rule:nonzero;stroke:none;stroke-width:1px;marker:none;enable-background:accumulate"
       d="m 1146.2027,3115.7233 c -1.1746,-31.62 21.3289,-64.5566 33.0747,-74.6749 11.7461,-10.1185 83.0232,-20.0204 110.0387,-20.0204 27.0155,0 141.3233,5.6137 161.2914,28.3802 19.9679,22.7664 43.087,39.919 30.1666,77.863 -12.9206,37.9439 -93.9671,56.916 -111.586,60.7103 -17.6188,3.7944 -68.1262,6.324 -84.5704,5.0593 -16.4443,-1.2649 -141.9387,-25.4606 -138.415,-77.3175 z"
       id="path3357"
       inkscape:connector-curvature="0"
       inkscape:transform-center-x="-251.35553"
       inkscape:transform-center-y="-147.27939"
       sodipodi:nodetypes="ccsscccc" />
    <path
       style="fill:#ffffff;fill-rule:evenodd;stroke:none;stroke-width:0.99999988px;stroke-linecap:butt;stroke-linejoin:miter;stroke-opacity:1"
       d="m 1146.2648,2478.7083 c 8.9148,-23.8569 32.9214,-41.9579 59.049,-54.0414 12.4339,-5.8338 26.6461,-10.1089 41.1894,-8.9844 14.448,0.6719 28.5601,4.6835 43.1678,3.2901 17.7627,-0.4602 35.8372,-2.4681 53.3959,0.401 15.609,3.1306 31.6907,4.752 47.7982,4.846 11.3633,-1.9871 21.7614,3.3092 31.9096,6.4769 9.1104,3.4218 18.4159,7.0119 26.0681,12.3048 7.05,7.4302 15.4914,13.8943 22.6237,21.2583 4.6669,4.0258 4.2185,9.5866 4.0035,14.7331 -0.6061,10.5387 -1.6325,21.2437 -5.4423,31.3969 -2.2798,6.4459 -10.7065,8.5792 -17.1814,11.5412 -15.3207,6.2528 -31.5892,10.9944 -46.2109,18.3527 -14.4858,3.7677 -29.8803,2.0054 -44.7362,1.436 -12.4483,-1.1215 -24.9706,-2.6855 -37.5258,-1.3813 -15.9798,0.9544 -31.9111,3.4258 -47.9482,3.1093 -20.0899,-2.1722 -39.3306,-7.5207 -58.7995,-11.8111 -17.4671,-3.7817 -33.387,-10.8926 -48.6624,-18.4995 -8.1596,-4.3197 -16.7975,-9.3407 -19.6772,-17.3014 -2.3606,-5.4816 -2.9168,-11.3511 -3.0213,-17.1272 z"
       id="path4365"
       inkscape:connector-curvature="0" />
    <path
       style="color:#000000;display:inline;overflow:visible;visibility:visible;fill:#ffffff;fill-opacity:1;fill-rule:nonzero;stroke:none;stroke-width:0.99999988px;marker:none;enable-background:accumulate"
       d="m 2429.703,2354.135 c -220.1352,5.664 -413.2002,-1.8619 -539.2741,-3.1385 1.0192,29.3316 -26.0808,22.3328 -51.7366,7.7184 20.4254,58.3937 -13.4471,62.9492 -64.7579,35.1452 51.7894,58.2469 -0.1666,49.8371 -63.8949,12.6621 61.4504,58.0333 109.2539,112.238 -11.3243,77.0671 71.4494,38.4263 103.3644,56.9179 37.9144,76.3342 63.6894,22.4893 51.8703,50.5184 -11.7295,54.5251 114.0819,34.8331 33.6148,51.3361 -12.9668,62.847 128.697,19.0258 43.7671,43.9617 -25.9405,91.1423 80.6205,-14.4985 157.8233,-32.293 76.1624,30.3246 146.2793,-36.4889 102.5458,-6.9285 21.562,53.6563 46.251,-18.2784 167.4874,-47.6005 131.8189,0.214 59.0357,-30.2272 34.4732,10.9886 30.1039,35.204 7.7287,-7.9446 33.0062,-55.4847 41.2679,-23.2885 15.0605,-23.2376 27.7659,-18.7159 26.1596,14.1633 12.9899,-19.1042 43.5943,-39.4281 32.5402,0.758 19.2424,-40.21 23.966,-7.3497 14.7559,24.8185 48.107,-62.5107 55.0606,-65.5945 59.4626,4.2952 20.0793,-39.3517 44.13,-79.5171 83.378,-12.348 0.051,-22.3292 6.8899,-60.1712 71.0099,8.4578 -25.8163,-70.6232 37.4288,-56.912 64.2122,10.957 -32.6871,-86.5033 9.4928,-126.4741 62.5885,-36.0341 5.2205,-118.7449 30.1008,-426.102 28.6882,-525.481 z"
       id="path4024"
       inkscape:connector-curvature="0"
       sodipodi:nodetypes="cccccccccccccccccccccccc" />
    <path
       style="fill:#ffffff;fill-rule:evenodd;stroke:none;stroke-width:0.99999994px;stroke-linecap:butt;stroke-linejoin:miter;stroke-opacity:1"
       d="m 2320.0189,2966.9466 -102.8737,31.1414 30.781,-65.8394 -54.3109,13.511 73.467,-174.0894 -83.4186,10.4305 -22.2012,199.1888 46.5569,-15.7553 -28.3923,68.2411 z"
       id="path5002"
       inkscape:connector-curvature="0"
       sodipodi:nodetypes="cccccccccc" />
    <text
       xml:space="preserve"
       style="font-style:normal;font-variant:normal;font-weight:normal;font-stretch:normal;line-height:89.99999762%;font-family:Midan;-inkscape-font-specification:Midan;letter-spacing:0px;word-spacing:0px;fill:#ffffff;fill-opacity:1;stroke:#000000;stroke-width:0.57625628;stroke-miterlimit:4;stroke-dasharray:none;stroke-opacity:1;filter:url(#filter4375-4-1-1-1-9)"
       x="787.65729"
       y="1584.5073"
       id="text4580"
       transform="matrix(0.47590856,-0.23101257,-0.08785973,0.61214035,2051.4196,1281.2253)"><tspan
         sodipodi:role="line"
         id="tspan4582"
         x="787.65729"
         y="1584.5073"
         style="font-style:normal;font-variant:normal;font-weight:normal;font-stretch:normal;font-size:70px;line-height:89.99999762%;font-family:Midan;-inkscape-font-specification:Midan;letter-spacing:5.62810278px;fill:#ffffff;stroke-width:0.57625628;stroke-miterlimit:4;stroke-dasharray:none"><tspan
           style="font-style:normal;font-variant:normal;font-weight:normal;font-stretch:normal;font-size:61.46733856px;line-height:89.99999762%;font-family:Midan;-inkscape-font-specification:Midan"
           id="tspan896">PAF</tspan><tspan
           style="font-style:normal;font-variant:normal;font-weight:normal;font-stretch:normal;font-size:80.40014648px;line-height:89.99999762%;font-family:Midan;-inkscape-font-specification:Midan;letter-spacing:5.62810278px;fill:#ffffff;stroke-width:0.57625628;stroke-miterlimit:4;stroke-dasharray:none"
           id="tspan4617">!</tspan></tspan></text>
    <path
       style="fill:#ffffff;fill-rule:evenodd;stroke:none;stroke-width:1px;stroke-linecap:butt;stroke-linejoin:miter;stroke-opacity:1"
       d="m 606.64438,688.13568 c 53.77935,-14.71022 46.31957,20.21656 41.32639,53.14407 37.80494,-43.59903 55.26716,-29.85149 61.98961,14.17175 33.62525,-62.22579 59.25693,-30.90893 85.83175,-10.62881 1.02337,-30.58118 16.76245,-46.25269 77.88437,-15.94322 -32.19125,-44.20554 -28.66018,-71.76224 39.73691,-69.08729 -61.86013,-15.97494 -61.03687,-42.11142 -22.25267,-74.4017 -45.37354,26.89223 -74.55312,30.92349 -65.16855,-19.48617 -45.60554,49.76939 -52.18919,18.77197 -60.40013,-8.85734 -18.96237,57.85359 -45.06195,40.93556 -73.11593,3.54293 0.75602,36.0549 -10.20221,57.18925 -60.40012,28.34351 8.5968,26.18958 33.74624,62.31265 -25.43163,47.82967 31.70501,15.40054 43.05808,31.90752 0,51.3726 z"
       id="path907"
       inkscape:connector-curvature="0"
       sodipodi:nodetypes="ccccccccccccc" />
  </g>
  <g
     inkscape:groupmode="layer"
     id="layer1"
     inkscape:label="txt"
     style="display:inline">
    <path
       style="color:#000000;display:inline;overflow:visible;visibility:visible;fill:#ffffff;fill-opacity:1;fill-rule:nonzero;stroke:none;stroke-width:1px;marker:none;enable-background:accumulate"
       d="m 643.30092,3062.9957 c -16.45129,42.7371 -57.34368,52.6864 -79.08413,59.0603 -3.49561,-4.6209 -10.29733,-21.207 -10.29733,-21.207 0,0 -73.99284,20.9972 -91.7304,22.9324 -17.73755,1.9353 -27.60488,-25.996 -27.60488,-25.996 -1.49889,4.9963 104.15858,-3.83 127.4154,-18.4787 8.90084,13.0355 10.12822,16.304 14.99068,21.2359 13.47897,-4.7946 53.36319,-19.1261 66.31066,-37.5469 z"
       id="path4456"
       inkscape:connector-curvature="0"
       sodipodi:nodetypes="cccscccc" />
    <text
       xml:space="preserve"
       style="font-style:normal;font-variant:normal;font-weight:normal;font-stretch:normal;line-height:89.99999762%;font-family:Midan;-inkscape-font-specification:Midan;text-align:center;letter-spacing:0px;word-spacing:0px;text-anchor:middle;fill:#000000;fill-opacity:1;stroke:none"
       x="728.86694"
       y="514.9978"
       id="text4246"><tspan
         sodipodi:role="line"
         style="font-style:normal;font-variant:normal;font-weight:900;font-stretch:normal;font-size:48px;line-height:89.99999762%;font-family:Midan;-inkscape-font-specification:'Midan Heavy'"
         x="733.60132"
         y="514.9978"
         id="tspan837">یه درخت </tspan><tspan
         sodipodi:role="line"
         style="font-style:normal;font-variant:normal;font-weight:900;font-stretch:normal;font-size:48px;line-height:89.99999762%;font-family:Midan;-inkscape-font-specification:'Midan Heavy'"
         x="733.60132"
         y="558.19781"
         id="tspan882">وحدت میخوای؟ </tspan></text>
    <text
       xml:space="preserve"
       style="font-style:normal;font-variant:normal;font-weight:normal;font-stretch:normal;line-height:89.99999762%;font-family:Midan;-inkscape-font-specification:Midan;text-align:center;letter-spacing:0px;word-spacing:0px;text-anchor:middle;fill:#000000;fill-opacity:1;stroke:none"
       x="1574.4889"
       y="1929.9208"
       id="text4246-7"><tspan
         sodipodi:role="line"
         style="font-style:normal;font-variant:normal;font-weight:normal;font-stretch:normal;font-size:53.33333206px;line-height:89.99999762%;font-family:Midan;-inkscape-font-specification:Midan"
         x="1579.3326"
         y="1929.9208"
         id="tspan934">.ما جادوگرای کاوسا هستیم </tspan><tspan
         sodipodi:role="line"
         style="font-style:normal;font-variant:normal;font-weight:normal;font-stretch:normal;font-size:53.33333206px;line-height:89.99999762%;font-family:Midan;-inkscape-font-specification:Midan"
         x="1574.4889"
         y="1977.9208"
         id="tspan895">.ما از این کارا انجام نمیدیم</tspan></text>
    <text
       xml:space="preserve"
       style="font-style:normal;font-variant:normal;font-weight:normal;font-stretch:normal;line-height:89.99999762%;font-family:Midan;-inkscape-font-specification:Midan;text-align:center;letter-spacing:0px;word-spacing:0px;text-anchor:middle;fill:#000000;fill-opacity:1;stroke:none"
       x="281.52304"
       y="3001"
       id="text4246-7-6"><tspan
         sodipodi:role="line"
         style="font-style:normal;font-variant:normal;font-weight:normal;font-stretch:normal;font-size:53.33333206px;line-height:89.99999762%;font-family:Midan;-inkscape-font-specification:Midan"
         x="286.36679"
         y="3001"
         id="tspan908">تو بهتره روی یاد </tspan><tspan
         sodipodi:role="line"
         style="font-style:normal;font-variant:normal;font-weight:normal;font-stretch:normal;font-size:53.33333206px;line-height:89.99999762%;font-family:Midan;-inkscape-font-specification:Midan"
         x="286.36679"
         y="3049"
         id="tspan916">«گرفتن «جادوی نابودی </tspan><tspan
         sodipodi:role="line"
         style="font-style:normal;font-variant:normal;font-weight:normal;font-stretch:normal;font-size:53.33333206px;line-height:89.99999762%;font-family:Midan;-inkscape-font-specification:Midan"
         x="281.52304"
         y="3097"
         id="tspan912">!تمرکز بکنی</tspan></text>
    <text
       xml:space="preserve"
       style="font-style:normal;font-variant:normal;font-weight:normal;font-stretch:normal;line-height:89.99999762%;font-family:Midan;-inkscape-font-specification:Midan;text-align:center;letter-spacing:0px;word-spacing:0px;text-anchor:middle;fill:#000000;fill-opacity:1;stroke:none"
       x="1305.3973"
       y="2491.7979"
       id="text4246-7-6-2"><tspan
         sodipodi:role="line"
         style="font-style:normal;font-variant:normal;font-weight:normal;font-stretch:normal;font-size:64px;line-height:89.99999762%;font-family:Midan;-inkscape-font-specification:Midan"
         x="1305.3973"
         y="2491.7979"
         id="tspan1069-6">نابودی؟</tspan></text>
    <text
       xml:space="preserve"
       style="font-style:normal;font-variant:normal;font-weight:normal;font-stretch:normal;line-height:89.99999762%;font-family:Midan;-inkscape-font-specification:Midan;text-align:center;letter-spacing:0px;word-spacing:0px;text-anchor:middle;fill:#000000;fill-opacity:1;stroke:none"
       x="1311.0408"
       y="3110.3787"
       id="text4246-7-6-2-0"><tspan
         sodipodi:role="line"
         style="font-style:normal;font-variant:normal;font-weight:normal;font-stretch:normal;font-size:53.33333206px;line-height:89.99999762%;font-family:Midan;-inkscape-font-specification:Midan"
         x="1311.0408"
         y="3110.3787"
         id="tspan4434">این وقت از سال؟</tspan></text>
    <text
       xml:space="preserve"
       style="font-style:normal;font-variant:normal;font-weight:normal;font-stretch:normal;line-height:89.99999762%;font-family:Midan;-inkscape-font-specification:Midan;text-align:center;letter-spacing:0px;word-spacing:0px;text-anchor:middle;fill:#000000;fill-opacity:1;stroke:none"
       x="1270.27"
       y="3249.5964"
       id="text4246-7-6-2-0-5"><tspan
         sodipodi:role="line"
         style="font-style:normal;font-variant:normal;font-weight:normal;font-stretch:normal;font-size:53.33333206px;line-height:89.99999762%;font-family:Midan;-inkscape-font-specification:Midan"
         x="1270.27"
         y="3249.5964"
         id="tspan4447">چرا بجاش جادوی</tspan><tspan
         sodipodi:role="line"
         style="font-style:normal;font-variant:normal;font-weight:normal;font-stretch:normal;font-size:53.33333206px;line-height:89.99999762%;font-family:Midan;-inkscape-font-specification:Midan"
         x="1270.27"
         y="3297.5964"
         id="tspan929">خلقت رو یاد نگیرم؟</tspan></text>
    <text
       xml:space="preserve"
       style="font-style:normal;font-variant:normal;font-weight:normal;font-stretch:normal;line-height:89.99999762%;font-family:Midan;-inkscape-font-specification:Midan;text-align:center;letter-spacing:0px;word-spacing:0px;text-anchor:middle;fill:#000000;fill-opacity:1;stroke:none;stroke-width:1.60000002;stroke-miterlimit:4;stroke-dasharray:none"
       x="2081.9304"
       y="2519.3547"
       id="text4246-7-6-2-04"><tspan
         sodipodi:role="line"
         style="font-style:normal;font-variant:normal;font-weight:normal;font-stretch:normal;font-size:53.33333206px;line-height:89.99999762%;font-family:Midan;-inkscape-font-specification:Midan;stroke:none;stroke-width:1.60000002;stroke-miterlimit:4;stroke-dasharray:none;stroke-opacity:1"
         x="2086.7742"
         y="2519.3547"
         id="tspan4456">جلسه بعدی شورای سه ماه و </tspan><tspan
         sodipodi:role="line"
         style="font-style:normal;font-variant:normal;font-weight:normal;font-stretch:normal;font-size:53.33333206px;line-height:89.99999762%;font-family:Midan;-inkscape-font-specification:Midan;stroke:none;stroke-width:1.60000002;stroke-miterlimit:4;stroke-dasharray:none;stroke-opacity:1"
         x="2081.9304"
         y="2567.3547"
         id="tspan961">!همچنین امتحانات نزدیکه</tspan><tspan
         sodipodi:role="line"
         style="font-style:normal;font-variant:normal;font-weight:900;font-stretch:normal;font-size:53.33333206px;line-height:89.99999762%;font-family:Midan;-inkscape-font-specification:'Midan Heavy';stroke:none;stroke-width:1.60000002;stroke-miterlimit:4;stroke-dasharray:none;stroke-opacity:1"
         x="2081.9304"
         y="2615.3547"
         id="tspan987">!<tspan
   style="font-style:normal;font-variant:normal;font-weight:900;font-stretch:normal;font-size:48px;font-family:Midan;-inkscape-font-specification:'Midan Heavy'"
   id="tspan995">یادبگیر، یادبگیر و یادبگیر</tspan></tspan><tspan
         sodipodi:role="line"
         style="font-style:normal;font-variant:normal;font-weight:900;font-stretch:normal;font-size:48px;line-height:89.99999762%;font-family:Midan;-inkscape-font-specification:'Midan Heavy';stroke:none;stroke-width:1.60000002;stroke-miterlimit:4;stroke-dasharray:none;stroke-opacity:1"
         x="2081.9304"
         y="2660.9548"
         id="tspan991">اینقدر ذهنتو با این فکرهای</tspan><tspan
         sodipodi:role="line"
         style="font-style:normal;font-variant:normal;font-weight:900;font-stretch:normal;font-size:48px;line-height:89.99999762%;font-family:Midan;-inkscape-font-specification:'Midan Heavy';stroke:none;stroke-width:1.60000002;stroke-miterlimit:4;stroke-dasharray:none;stroke-opacity:1"
         x="2081.9304"
         y="2704.1548"
         id="tspan993">!مسخره و احمقانه مشغول نکن</tspan></text>
    <flowRoot
       xml:space="preserve"
       id="flowRoot862"
       style="font-style:normal;font-variant:normal;font-weight:normal;font-stretch:normal;font-size:0.66666669px;line-height:318.00000668%;font-family:Neuropolitical;-inkscape-font-specification:Neuropolitical;text-align:center;letter-spacing:0px;word-spacing:0px;writing-mode:lr-tb;text-anchor:middle;fill:#000000;fill-opacity:1;stroke:none;stroke-width:1px;stroke-linecap:butt;stroke-linejoin:miter;stroke-opacity:1"><flowRegion
         id="flowRegion864"><rect
           id="rect866"
           width="103.5"
           height="5.75"
           x="1181.625"
           y="3275.875" /></flowRegion><flowPara
         id="flowPara868" /></flowRoot>    <text
       xml:space="preserve"
       style="font-style:normal;font-variant:normal;font-weight:normal;font-stretch:normal;font-size:14.71681118px;line-height:89.99999762%;font-family:Midan;-inkscape-font-specification:Midan;text-align:center;letter-spacing:0px;word-spacing:0px;text-anchor:middle;fill:#000000;fill-opacity:1;stroke:none;stroke-width:1"
       x="924.44318"
       y="676.29504"
       id="text4246-36"
       transform="skewX(-9.9961078)"><tspan
         sodipodi:role="line"
         style="font-style:normal;font-variant:normal;font-weight:900;font-stretch:normal;font-size:55.18799973px;line-height:89.99999762%;font-family:Midan;-inkscape-font-specification:'Midan Heavy';font-variant-ligatures:normal;font-variant-caps:normal;font-variant-numeric:normal;font-feature-settings:normal;text-align:end;writing-mode:lr-tb;text-anchor:end;stroke-width:1"
         x="924.44318"
         y="676.29504"
         id="tspan837-3">اینجا؟؟</tspan></text>
    <text
       xml:space="preserve"
       style="font-style:normal;font-variant:normal;font-weight:normal;font-stretch:normal;font-size:19.04891968px;line-height:89.99999762%;font-family:Midan;-inkscape-font-specification:Midan;text-align:center;letter-spacing:0px;word-spacing:0px;text-anchor:middle;fill:#000000;fill-opacity:1;stroke:none;stroke-width:1.99999988;stroke-miterlimit:4;stroke-dasharray:none"
       x="1708.4286"
       y="1818.4458"
       id="text4246-3"
       transform="matrix(1.0148714,0,-0.1559129,0.98534652,0,0)"><tspan
         sodipodi:role="line"
         style="font-style:normal;font-variant:normal;font-weight:normal;font-stretch:normal;font-size:96px;line-height:89.99999762%;font-family:Midan;-inkscape-font-specification:Midan;stroke:#000000;stroke-width:1.99999988;stroke-miterlimit:4;stroke-dasharray:none;stroke-opacity:1"
         x="1708.4286"
         y="1818.4458"
         id="tspan4252-6">!نه</tspan></text>
  </g>
</svg>
