{
   "en":"English",
   "aa":"Afar",
   "ab":"Abkhazian",
   "af":"Afrikaans",
   "am":"Amharic",
   "ar":"Arabic",
   "as":"Assamese",
   "ay":"Aymara",
   "az":"Azerbaijani",
   "ba":"Bashkir",
   "be":"Byelorussian",
   "bg":"Bulgarian",
   "bh":"Bihari",
   "bi":"Bislama",
   "bn":"Bengali",
   "bo":"Tibetan",
   "br":"Breton",
   "ca":"Catalan",
   "co":"Corsican",
   "cn":"Chinese",
   "cs":"Czech",
   "cy":"Welsh",
   "da":"Danish",
   "de":"German",
   "dz":"Bhutani",
   "el":"Greek",
   "eo":"Esperanto",
   "es":"Spanish",
   "et":"Estonian",
   "eu":"Basque",
   "fa":"Persian",
   "fi":"Finnish",
   "fj":"Fiji",
   "fo":"Faeroese",
   "fr":"French",
   "fy":"Frisian",
   "ga":"Irish",
   "gd":"Scots\/Gaelic",
   "gl":"Galician",
   "gn":"Guarani",
   "go":"Gallo",
   "gu":"Gujarati",
   "ha":"Hausa",
   "hi":"Hindi",
   "hr":"Croatian",
   "hu":"Hungarian",
   "hy":"Armenian",
   "ia":"Interlingua",
   "ie":"Interlingue",
   "id":"Indonesian",
   "ik":"Inupiak",
   "in":"Indonesian",
   "io":"Ido",
   "is":"Icelandic",
   "it":"Italian",
   "iw":"Hebrew",
   "ja":"Japanese",
   "jb":"Lojban",
   "ji":"Yiddish",
   "jw":"Javanese",
   "ka":"Georgian",
   "kk":"Kazakh",
   "kt":"Kotava",
   "kl":"Greenlandic",
   "km":"Cambodian",
   "kn":"Kannada",
   "kr":"Korean",
   "ks":"Kashmiri",
   "ku":"Kurdish",
   "ky":"Kirghiz",
   "la":"Latin",
   "ln":"Lingala",
   "lo":"Laothian",
   "lt":"Lithuanian",
   "lv":"Latvian\/Lettish",
   "mg":"Malagasy",
   "mi":"Maori",
   "mk":"Macedonian",
   "ml":"Malayalam",
   "mn":"Mongolian",
   "mo":"Moldavian",
   "mr":"Marathi",
   "ms":"Malay",
   "mx":"Mexican",
   "mt":"Maltese",
   "my":"Burmese",
   "na":"Nauru",
   "ne":"Nepali",
   "ns":"Low Saxon",
   "nl":"Dutch",
   "no":"Norwegian",
   "oc":"Occitan",
   "om":"(Afan)\/Oromoor\/Oriya",
   "pa":"Punjabi",
   "ph":"Philippines",
   "pl":"Polish",
   "ps":"Pashto\/Pushto",
   "pt":"Portuguese",
   "qu":"Quechua",
   "rm":"Rhaeto-Romance",
   "rn":"Kirundi",
   "ro":"Romanian",
   "ru":"Russian",
   "rw":"Kinyarwanda",
   "sa":"Sanskrit",
   "sd":"Sindhi",
   "sg":"Sangro",
   "sh":"Serbo-Croatian",
   "si":"Sinhalese",
   "sk":"Slovak",
   "sl":"Slovenian",
   "sm":"Samoan",
   "sn":"Shona",
   "so":"Somali",
   "sq":"Albanian",
   "sr":"Serbian",
   "ss":"Siswati",
   "st":"Sesotho",
   "su":"Sundanese",
   "sv":"Swedish",
   "sw":"Swahili",
   "sz":"Silesian",
   "ta":"Tamil",
   "te":"Tegulu",
   "tg":"Tajik",
   "th":"Thai",
   "ti":"Tigrinya",
   "tk":"Turkmen",
   "tl":"Tagalog",
   "tn":"Setswana",
   "to":"Tonga",
   "tr":"Turkish",
   "ts":"Tsonga",
   "tt":"Tatar",
   "tw":"Twi",
   "uk":"Ukrainian",
   "ur":"Urdu",
   "uz":"Uzbek",
   "vi":"Vietnamese",
   "vo":"Volapuk",
   "wo":"Wolof",
   "xh":"Xhosa",
   "yo":"Yoruba",
   "zh":"Chinese",
   "zu":"Zulu"
}