<?xml version="1.0" encoding="UTF-8" standalone="no"?>
<!-- Created with Inkscape (http://www.inkscape.org/) -->

<svg
   xmlns:dc="http://purl.org/dc/elements/1.1/"
   xmlns:cc="http://creativecommons.org/ns#"
   xmlns:rdf="http://www.w3.org/1999/02/22-rdf-syntax-ns#"
   xmlns:svg="http://www.w3.org/2000/svg"
   xmlns="http://www.w3.org/2000/svg"
   xmlns:xlink="http://www.w3.org/1999/xlink"
   xmlns:sodipodi="http://sodipodi.sourceforge.net/DTD/sodipodi-0.dtd"
   xmlns:inkscape="http://www.inkscape.org/namespaces/inkscape"
   id="svg2"
   version="1.1"
   inkscape:version="0.92.2 5c3e80d, 2017-08-06"
   width="2481"
   height="3503"
   sodipodi:docname="E24P01.svg">
  <metadata
     id="metadata8">
    <rdf:RDF>
      <cc:Work
         rdf:about="">
        <dc:format>image/svg+xml</dc:format>
        <dc:type
           rdf:resource="http://purl.org/dc/dcmitype/StillImage" />
        <dc:title />
      </cc:Work>
    </rdf:RDF>
  </metadata>
  <defs
     id="defs6">
    <filter
       style="color-interpolation-filters:sRGB"
       id="filter4375-4-1-1-1-9"
       inkscape:label="deevad outline effect">
      <feFlood
         id="feFlood4377-7-9-0-8-1"
         flood-opacity="1"
         flood-color="rgb(0,0,0)"
         result="flood" />
      <feComposite
         id="feComposite4379-3-8-8-2-77"
         in2="SourceGraphic"
         in="flood"
         operator="in"
         result="composite1" />
      <feMorphology
         id="feMorphology4393-1-0-49-8-9"
         operator="dilate"
         radius="4"
         result="result3" />
      <feComposite
         id="feComposite4385-9-5-7-0-8"
         in2="result3"
         in="SourceGraphic"
         operator="over"
         result="composite2" />
    </filter>
  </defs>
  <sodipodi:namedview
     pagecolor="#ffffff"
     bordercolor="#666666"
     borderopacity="1"
     objecttolerance="10"
     gridtolerance="10"
     guidetolerance="10"
     inkscape:pageopacity="0"
     inkscape:pageshadow="2"
     inkscape:window-width="1440"
     inkscape:window-height="835"
     id="namedview4"
     showgrid="false"
     inkscape:zoom="0.34782609"
     inkscape:cx="957.90466"
     inkscape:cy="860.63442"
     inkscape:window-x="0"
     inkscape:window-y="41"
     inkscape:window-maximized="1"
     inkscape:current-layer="layer1"
     inkscape:snap-global="false" />
  <g
     inkscape:groupmode="layer"
     id="layer2"
     inkscape:label="artwork"
     sodipodi:insensitive="true">
    <image
       sodipodi:absref="/home/juanjo/Comics/Pepper and Carrot/webcomics/ep24_The-Unity-Tree/lang/es/../gfx_Pepper-and-Carrot_by-David-Revoy_E24P01.png"
       xlink:href="../gfx_Pepper-and-Carrot_by-David-Revoy_E24P01.png"
       y="0"
       x="0"
       id="image10"
       height="3503"
       width="2481" />
  </g>
  <g
     inkscape:groupmode="layer"
     id="layer3"
     inkscape:label="speechbubbles">
    <path
       style="fill:#ffffff;fill-rule:evenodd;stroke:none;stroke-width:0.99999976px;stroke-linecap:butt;stroke-linejoin:miter;stroke-opacity:1"
       d="m 539.66221,444.82799 c 36.55731,10.3778 69.60255,16.82994 58.36783,-26.21365 64.70878,58.4381 55.42632,18.41593 65.6638,4.3689 38.47173,41.28048 71.57353,35.39772 100.31969,-8.73782 16.25064,63.66343 50.25665,32.81806 80.2557,23.30101 -0.0739,17.90316 -8.26408,38.4323 80.25581,27.67002 -25.31014,16.16964 -34.75093,30.84858 21.88795,39.32057 -39.34393,13.00092 -60.95092,26.83488 -18.24001,43.68959 -22.68985,24.55329 -7.51398,39.14523 23.71197,49.51474 -73.11296,1.43599 -82.60745,3.82078 -70.87777,16.5467 -62.24782,-26.16442 -43.85515,-4.56586 -38.56188,15.49224 -28.97275,-11.5063 -50.38741,-38.70257 -102.14363,-2.91255 -15.39294,-11.87815 -29.58181,-26.88035 -63.83986,10.19418 -2.41665,-32.33917 -24.40882,-28.74175 -60.78514,-10.72596 -13.50265,-27.31839 -48.6766,-17.31041 -86.95843,1.98814 31.2467,-29.60091 33.51099,-54.33009 -27.35992,-68.44696 58.98901,-16.93386 48.24763,-30.59285 25.53592,-43.68949 22.43844,-12.31548 37.06855,-25.73102 -21.88793,-49.51483 34.47042,3.69751 71.17336,8.46458 34.6559,-21.84483 z"
       id="path4582"
       inkscape:connector-curvature="0"
       sodipodi:nodetypes="ccccccccccccccccccc" />
    <path
       style="color:#000000;display:inline;overflow:visible;visibility:visible;fill:#ffffff;fill-opacity:1;fill-rule:nonzero;stroke:none;stroke-width:0.99999994px;marker:none;enable-background:accumulate"
       d="m 1120.4405,700.1743 c -32.2265,-17.97546 -75.6905,-29.21797 -94.8601,-55.01638 l -18.7309,38.20697 c -21.19647,-1.31166 -26.2338,-14.07539 -36.75813,-22.95055 l -18.52445,25.72405 C 902.21848,682.47077 878.08971,666.613 844.32571,653.77368 l -19.93547,22.60875 c 41.44339,8.00317 86.22663,23.6167 121.36515,31.70826 l 22.07602,-17.34663 c 14.0695,3.48337 27.30829,7.5971 36.83679,14.52656 l 23.5694,-31.97386 z"
       id="path4032"
       inkscape:connector-curvature="0"
       sodipodi:nodetypes="cccccccccccc" />
    <path
       style="color:#000000;display:inline;overflow:visible;visibility:visible;fill:#ffffff;fill-opacity:1;fill-rule:nonzero;stroke:none;stroke-width:0.99999994px;marker:none;enable-background:accumulate"
       d="m 1373.3502,1868.2437 c 6.6851,-9.6035 35.5763,-37.7572 31.3268,-2.86 46.4175,-40.2666 78.7953,-19.5262 111.971,-2.2535 11.4973,-12.4731 16.0323,-33.3022 45.1957,-24.5731 -1.9873,-14.0664 9.629,-22.0812 33.3836,-24.6967 -29.027,-12.0387 -33.2191,-21.179 24.6468,-23.0767 -42.759,-6.3379 -82.4984,-13.2357 -27.1003,-37.773 -15.6687,-2.7585 -57.3593,18.2946 -27.5245,-55.0444 -31.1129,20.7342 -62.2582,30.3971 -90.297,-24.8989 -14.441,18.5866 -33.3418,29.9721 -60.9951,-1.4146 -10.1201,18.985 -49.1487,15.6954 -62.7522,9.8432 25.1172,25.8757 21.8709,39.5499 -17.5185,36.7247 58.9158,48.3718 6.4035,35.5263 -5.8106,44.3362 49.1464,20.3406 23.3399,34.5624 11.3904,50.4926 58.9887,8.1069 35.1654,33.0527 34.0839,55.1942 z"
       id="path3549-3"
       inkscape:connector-curvature="0"
       sodipodi:nodetypes="ccccccccccccccc" />
    <path
       style="color:#000000;display:inline;overflow:visible;visibility:visible;fill:#ffffff;fill-opacity:1;fill-rule:nonzero;stroke:none;stroke-width:0.99999988px;marker:none;enable-background:accumulate"
       d="m 1335.6889,1948.0036 c 5.1172,-75.8195 85.041,-136.0769 263.8508,-119.3503 95.7804,8.9596 216.8537,11.5576 210.468,122.6433 -6.3854,111.0853 -174.9845,109.9946 -207.223,112.1526 -32.2388,2.1584 -208.0182,-2.3501 -237.6367,-40.5729 -18.5412,-23.9266 -29.8367,-51.3744 -29.4591,-74.8727 z"
       id="path4546-6"
       inkscape:connector-curvature="0"
       sodipodi:nodetypes="cssssc" />
    <path
       style="color:#000000;display:inline;overflow:visible;visibility:visible;fill:#ffffff;fill-opacity:1;fill-rule:nonzero;stroke:none;stroke-width:1px;marker:none;enable-background:accumulate"
       d="m 1725.1844,1861.3342 c 6.612,11.2759 86.9477,-29.2003 85.8796,-32.4046 0,0 27.5174,7.7754 31.5141,6.9248 1.9994,-6.4636 4.2729,-17.2204 4.2729,-17.2204 l 43.1705,1.271 -34.6999,8.0734 0.1804,21.2585 -36.6531,-7.0896 c -19.044,13.242 -51.208,25.1719 -50.7716,40.3619 z"
       id="path4448"
       inkscape:connector-curvature="0"
       sodipodi:nodetypes="cccccccccc" />
    <path
       style="color:#000000;display:inline;overflow:visible;visibility:visible;fill:#ffffff;fill-opacity:1;fill-rule:nonzero;stroke:none;stroke-width:0.99999994px;marker:none;enable-background:accumulate"
       d="m 31.44303,3095.7299 c 46.557355,10.3692 42.636936,48.2562 29.963252,61.3354 52.096308,-46.7222 79.372198,-28.9997 52.849338,17.9764 90.6001,-64.4817 122.11282,-18.2152 106.88468,6.8647 38.27253,-51.9787 107.89026,-55.5272 143.93172,0.6598 22.73332,-67.8483 54.46909,-42.5061 97.90476,-25.7165 -32.98939,-25.5059 -52.01928,-50.7402 36.59876,-83.3778 -47.49639,9.4513 -94.31963,-23.6529 -12.66753,-50.0331 -80.95586,-1.268 -86.64813,-38.1544 -0.68163,-55.4219 -83.49864,0.126 -75.7826,-25.4487 -37.67591,-57.264 -58.61097,8.8812 -73.20875,-20.4037 -18.47961,-67.2911 -91.72104,42.1831 -96.2526,17.5732 -90.12973,-36.7606 -51.74809,59.4933 -53.22804,31.0556 -63.58586,-25.3142 -10.91399,41.4415 -38.98972,72.4087 -96.97347,24.0297 8.93373,26.9332 -3.97079,57.3937 -83.178102,26.6616 42.386692,32.3848 72.822682,87.9327 -50.666112,87.2098 57.617544,21.3995 81.759984,52.6588 2.72923,59.3387 31.602551,7.0384 39.88367,26.7364 38.003815,42.77 -14.234012,5.1562 -33.142072,10.1477 -57.556842,14.9946 46.035137,14.5634 75.247121,33.2843 2.729241,59.3385 z"
       id="path3549-3-7"
       inkscape:connector-curvature="0"
       sodipodi:nodetypes="cccccccccccccccccccc" />
    <path
       style="fill:#ffffff;stroke:none;stroke-width:1"
       d="m 1312.0471,2636.6402 c 24.8572,-23.3618 23.0898,-34.098 20.1693,-46.0928 -2.9204,-11.9949 -6.7783,-22.4564 -2.996,-29.6912 3.7822,-7.2345 11.9314,-13.7504 18.5182,-17.7105 6.5867,-3.9602 0.6895,-11.8462 0.1992,-20.4782 -0.4905,-8.632 11.6694,-54.4912 11.6694,-54.4912 0,0 15.4128,29.8223 17.3984,40.7257 1.9857,10.9032 2.7616,14.8752 2.4762,19.5352 -0.2855,4.6599 -2.4809,16.1126 -8.3834,22.0982 -5.9026,5.9855 -13.8607,8.5198 -19.1677,11.9592 -5.307,3.4394 -4.2207,13.2301 -3.7625,22.963 0.4583,9.7331 -0.6146,16.9839 -10.2491,30.0137 -8.2583,11.169 -25.872,21.1689 -25.872,21.1689 z"
       id="path3023-2"
       inkscape:connector-curvature="0"
       sodipodi:nodetypes="csssscssssssc" />
    <path
       style="color:#000000;display:inline;overflow:visible;visibility:visible;fill:#ffffff;fill-opacity:1;fill-rule:nonzero;stroke:none;stroke-width:0.99999994px;marker:none;enable-background:accumulate"
       d="m 1316.0029,3034.7179 c 5.2109,-36.069 14.5234,-83.1655 -40.179,-91.5576 2.7742,1.4246 74.681,-16.1526 71.113,92.3401 -3.568,108.4926 -13.868,120.9339 -13.868,120.9339 z"
       id="path4064"
       inkscape:connector-curvature="0"
       sodipodi:nodetypes="ccscc" />
    <path
       style="color:#000000;display:inline;overflow:visible;visibility:visible;fill:#ffffff;fill-opacity:1;fill-rule:nonzero;stroke:none;stroke-width:1px;marker:none;enable-background:accumulate"
       d="m 1059.7081,3315.4698 c -1.2881,-70.5669 40.8599,-113.3106 48.9411,-119.1797 72.9374,-52.97 300.1353,-33.3933 340.0136,3.1361 33.4861,29.7952 41.2138,50.181 37.3498,76.8398 -3.8637,26.6586 -24.4706,97.2255 -72.124,117.6115 -47.6533,20.3859 -158.4152,29.795 -216.3722,14.1133 -57.9568,-15.6815 -142.9602,-31.363 -137.8083,-92.521 z"
       id="path3517"
       inkscape:connector-curvature="0"
       sodipodi:nodetypes="cscsccc" />
    <path
       style="color:#000000;display:inline;overflow:visible;visibility:visible;fill:#ffffff;fill-opacity:1;fill-rule:nonzero;stroke:none;stroke-width:0.99999994px;marker:none;enable-background:accumulate"
       d="m 1142.4257,3111.3676 c -1.2337,-30.3146 22.4012,-61.8913 34.7376,-71.5919 12.3366,-9.7008 87.1974,-19.1938 115.5712,-19.1938 28.3738,0 148.4287,5.3819 169.4007,27.2085 20.9719,21.8264 45.2533,38.2709 31.6833,74.6483 -13.5702,36.3774 -98.6915,54.5662 -117.1962,58.2038 -18.5047,3.6378 -71.5515,6.063 -88.8225,4.8505 -17.271,-1.2127 -149.075,-24.4095 -145.3741,-74.1254 z"
       id="path3357"
       inkscape:connector-curvature="0"
       inkscape:transform-center-x="-263.99311"
       inkscape:transform-center-y="-141.19882"
       sodipodi:nodetypes="ccsscccc" />
    <path
       style="fill:#ffffff;fill-rule:evenodd;stroke:none;stroke-width:0.99999988px;stroke-linecap:butt;stroke-linejoin:miter;stroke-opacity:1"
       d="m 1146.2648,2478.7083 c 8.9148,-23.8569 32.9214,-41.9579 59.049,-54.0414 12.4339,-5.8338 26.6461,-10.1089 41.1894,-8.9844 14.448,0.6719 28.5601,4.6835 43.1678,3.2901 17.7627,-0.4602 35.8372,-2.4681 53.3959,0.401 15.609,3.1306 31.6907,4.752 47.7982,4.846 11.3633,-1.9871 21.7614,3.3092 31.9096,6.4769 9.1104,3.4218 18.4159,7.0119 26.0681,12.3048 7.05,7.4302 15.4914,13.8943 22.6237,21.2583 4.6669,4.0258 4.2185,9.5866 4.0035,14.7331 -0.6061,10.5387 -1.6325,21.2437 -5.4423,31.3969 -2.2798,6.4459 -10.7065,8.5792 -17.1814,11.5412 -15.3207,6.2528 -31.5892,10.9944 -46.2109,18.3527 -14.4858,3.7677 -29.8803,2.0054 -44.7362,1.436 -12.4483,-1.1215 -24.9706,-2.6855 -37.5258,-1.3813 -15.9798,0.9544 -31.9111,3.4258 -47.9482,3.1093 -20.0899,-2.1722 -39.3306,-7.5207 -58.7995,-11.8111 -17.4671,-3.7817 -33.387,-10.8926 -48.6624,-18.4995 -8.1596,-4.3197 -16.7975,-9.3407 -19.6772,-17.3014 -2.3606,-5.4816 -2.9168,-11.3511 -3.0213,-17.1272 z"
       id="path4365"
       inkscape:connector-curvature="0" />
    <path
       style="color:#000000;display:inline;overflow:visible;visibility:visible;fill:#ffffff;fill-opacity:1;fill-rule:nonzero;stroke:none;stroke-width:0.99999988px;marker:none;enable-background:accumulate"
       d="m 2429.703,2354.135 c -220.1352,5.664 -413.2002,-1.8619 -539.2741,-3.1385 1.0192,29.3316 -26.0808,22.3328 -51.7366,7.7184 20.4254,58.3937 -13.4471,62.9492 -64.7579,35.1452 51.7894,58.2469 -0.1666,49.8371 -63.8949,12.6621 61.4504,58.0333 109.2539,112.238 -11.3243,77.0671 71.4494,38.4263 103.3644,56.9179 37.9144,76.3342 63.6894,22.4893 51.8703,50.5184 -11.7295,54.5251 114.0819,34.8331 33.6148,51.3361 -12.9668,62.847 128.697,19.0258 43.7671,43.9617 -25.9405,91.1423 80.6205,-14.4985 157.8233,-32.293 76.1624,30.3246 146.2793,-36.4889 102.5458,-6.9285 21.562,53.6563 46.251,-18.2784 167.4874,-47.6005 131.8189,0.214 59.0357,-30.2272 34.4732,10.9886 30.1039,35.204 7.7287,-7.9446 33.0062,-55.4847 41.2679,-23.2885 15.0605,-23.2376 27.7659,-18.7159 26.1596,14.1633 12.9899,-19.1042 43.5943,-39.4281 32.5402,0.758 19.2424,-40.21 23.966,-7.3497 14.7559,24.8185 48.107,-62.5107 55.0606,-65.5945 59.4626,4.2952 20.0793,-39.3517 44.13,-79.5171 83.378,-12.348 0.051,-22.3292 6.8899,-60.1712 71.0099,8.4578 -25.8163,-70.6232 37.4288,-56.912 64.2122,10.957 -32.6871,-86.5033 9.4928,-126.4741 62.5885,-36.0341 5.2205,-118.7449 30.1008,-426.102 28.6882,-525.481 z"
       id="path4024"
       inkscape:connector-curvature="0"
       sodipodi:nodetypes="cccccccccccccccccccccccc" />
    <path
       style="fill:#ffffff;fill-rule:evenodd;stroke:none;stroke-width:0.99999994px;stroke-linecap:butt;stroke-linejoin:miter;stroke-opacity:1"
       d="m 2320.0189,2966.9466 -102.8737,31.1414 30.781,-65.8394 -54.3109,13.511 73.467,-174.0894 -83.4186,10.4305 -22.2012,199.1888 46.5569,-15.7553 -28.3923,68.2411 z"
       id="path5002"
       inkscape:connector-curvature="0"
       sodipodi:nodetypes="cccccccccc" />
    <text
       xml:space="preserve"
       style="font-style:normal;font-variant:normal;font-weight:normal;font-stretch:normal;line-height:0%;font-family:Lavi;-inkscape-font-specification:Lavi;letter-spacing:0px;word-spacing:0px;fill:#ffffff;fill-opacity:1;stroke:#000000;stroke-width:0.57625628;stroke-miterlimit:4;stroke-dasharray:none;stroke-opacity:1;filter:url(#filter4375-4-1-1-1-9)"
       x="787.65729"
       y="1584.5073"
       id="text4580"
       transform="matrix(0.47590856,-0.23101257,-0.08785973,0.61214035,2051.4196,1281.2253)"><tspan
         sodipodi:role="line"
         id="tspan4582"
         x="787.65729"
         y="1584.5073"
         style="font-size:70px;line-height:1.25;letter-spacing:5.62810278px;fill:#ffffff;stroke-width:0.57625628;stroke-miterlimit:4;stroke-dasharray:none"><tspan
           style="font-size:61.46733856px"
           id="tspan896">¡PAF</tspan><tspan
           style="font-size:80.40014648px;letter-spacing:5.62810278px;fill:#ffffff;stroke-width:0.57625628;stroke-miterlimit:4;stroke-dasharray:none"
           id="tspan4617">!</tspan></tspan></text>
    <path
       style="fill:#ffffff;fill-rule:evenodd;stroke:none;stroke-width:1px;stroke-linecap:butt;stroke-linejoin:miter;stroke-opacity:1"
       d="m 573.39438,691.93925 c 64.86764,-13.00494 55.8698,17.87296 49.84711,46.98336 45.59961,-38.54483 66.66221,-26.39097 74.77071,12.52889 40.55814,-55.01228 71.47459,-27.32582 103.52863,-9.39667 1.23438,-27.03606 20.21855,-40.89086 93.94266,-14.095 -38.82847,-39.08103 -34.56936,-63.44322 47.92992,-61.07837 -74.61452,-14.12304 -73.62153,-30.76091 -26.84076,-59.30795 -54.7287,23.77476 -89.92456,20.86995 -78.60507,-23.69599 -55.00855,43.99989 -62.94962,16.59584 -72.8535,-7.83055 -22.87205,51.14693 -54.35288,36.19011 -88.19105,3.13222 -0.13078,26.03626 -19.86515,8.2268 -72.8535,25.05779 10.3693,23.15356 40.70408,55.08907 -30.67515,42.28503 38.24198,13.61523 51.93585,28.20865 0,45.41724 z"
       id="path907"
       inkscape:connector-curvature="0"
       sodipodi:nodetypes="ccccccccccccc" />
  </g>
  <g
     inkscape:groupmode="layer"
     id="layer1"
     inkscape:label="txt"
     style="display:inline">
    <path
       style="color:#000000;display:inline;overflow:visible;visibility:visible;fill:#ffffff;fill-opacity:1;fill-rule:nonzero;stroke:none;stroke-width:1px;marker:none;enable-background:accumulate"
       d="m 581.83722,3044.6997 c -16.45129,42.7371 -57.34368,52.6864 -79.08413,59.0603 -3.49561,-4.6209 -10.29733,-21.207 -10.29733,-21.207 0,0 -51.12826,31.5026 -68.86582,33.4378 -17.73755,1.9353 -19.57138,-14.8728 -19.57138,-14.8728 0,0 80.29422,-31.7712 95.58278,-42.4436 8.90084,13.0355 11.06276,18.6403 15.92522,23.5722 13.47897,-4.7946 53.36319,-19.1261 66.31066,-37.5469 z"
       id="path4456"
       inkscape:connector-curvature="0"
       sodipodi:nodetypes="cccscccc" />
    <text
       xml:space="preserve"
       style="font-style:normal;font-variant:normal;font-weight:normal;font-stretch:normal;line-height:0%;font-family:Lavi;-inkscape-font-specification:Lavi;text-align:center;letter-spacing:0px;word-spacing:0px;text-anchor:middle;fill:#000000;fill-opacity:1;stroke:none"
       x="720.86694"
       y="514.9978"
       id="text4246"><tspan
         sodipodi:role="line"
         style="font-size:45px;line-height:1.25"
         x="720.86694"
         y="514.9978"
         id="tspan4252">¿Que quieres un</tspan><tspan
         sodipodi:role="line"
         style="font-size:45px;line-height:1.25"
         x="720.86694"
         y="571.2478"
         id="tspan837">árbol de Unidad?</tspan></text>
    <text
       xml:space="preserve"
       style="font-style:normal;font-variant:normal;font-weight:normal;font-stretch:normal;line-height:0%;font-family:Lavi;-inkscape-font-specification:Lavi;text-align:center;letter-spacing:0px;word-spacing:0px;text-anchor:middle;fill:#000000;fill-opacity:1;stroke:none"
       x="1575.9264"
       y="1893.9833"
       id="text4246-7"><tspan
         sodipodi:role="line"
         style="font-size:45px;line-height:1.25"
         x="1583.8365"
         y="1893.9833"
         id="tspan4410">Somos las </tspan><tspan
         sodipodi:role="line"
         style="font-size:45px;line-height:1.25"
         x="1575.9264"
         y="1950.2333"
         id="tspan4414">Brujas del Caos;</tspan><tspan
         sodipodi:role="line"
         style="font-size:45px;line-height:1.25"
         x="1575.9264"
         y="2006.4833"
         id="tspan934">NO HACEMOS eso.</tspan></text>
    <text
       xml:space="preserve"
       style="font-style:normal;font-variant:normal;font-weight:normal;font-stretch:normal;line-height:0%;font-family:Lavi;-inkscape-font-specification:Lavi;text-align:center;letter-spacing:0px;word-spacing:0px;text-anchor:middle;fill:#000000;fill-opacity:1;stroke:none"
       x="261.39804"
       y="2929.25"
       id="text4246-7-6"><tspan
         sodipodi:role="line"
         style="font-size:45px;line-height:1.25"
         x="261.39804"
         y="2929.25"
         id="tspan934-1">¡Céntrate en</tspan><tspan
         sodipodi:role="line"
         style="font-size:45px;line-height:1.25"
         x="261.39804"
         y="2985.5"
         id="tspan3399">estudiar tus</tspan><tspan
         sodipodi:role="line"
         style="font-size:45px;line-height:1.25"
         x="261.39804"
         y="3041.75"
         id="tspan3401">«Hechizos de</tspan><tspan
         sodipodi:role="line"
         style="font-size:45px;line-height:1.25"
         x="261.39804"
         y="3098"
         id="tspan1069">destrucción»!</tspan></text>
    <text
       xml:space="preserve"
       style="font-style:normal;font-variant:normal;font-weight:normal;font-stretch:normal;line-height:0%;font-family:Lavi;-inkscape-font-specification:Lavi;text-align:center;letter-spacing:0px;word-spacing:0px;text-anchor:middle;fill:#000000;fill-opacity:1;stroke:none"
       x="1309.3973"
       y="2493.7979"
       id="text4246-7-6-2"><tspan
         sodipodi:role="line"
         style="font-size:45px;line-height:1.25"
         x="1309.3973"
         y="2493.7979"
         id="tspan1069-6">¿Destrucción?</tspan></text>
    <text
       xml:space="preserve"
       style="font-style:normal;font-variant:normal;font-weight:normal;font-stretch:normal;line-height:0%;font-family:Lavi;-inkscape-font-specification:Lavi;text-align:center;letter-spacing:0px;word-spacing:0px;text-anchor:middle;fill:#000000;fill-opacity:1;stroke:none"
       x="1315.0408"
       y="3078.3787"
       id="text4246-7-6-2-0"><tspan
         sodipodi:role="line"
         style="font-size:45px;line-height:1.25"
         x="1315.0408"
         y="3078.3787"
         id="tspan4430">¿En esta</tspan><tspan
         sodipodi:role="line"
         style="font-size:45px;line-height:1.25"
         x="1315.0408"
         y="3134.6287"
         id="tspan4434">época del año?</tspan></text>
    <text
       xml:space="preserve"
       style="font-style:normal;font-variant:normal;font-weight:normal;font-stretch:normal;line-height:0%;font-family:Lavi;-inkscape-font-specification:Lavi;text-align:center;letter-spacing:0px;word-spacing:0px;text-anchor:middle;fill:#000000;fill-opacity:1;stroke:none"
       x="1272.27"
       y="3217.5964"
       id="text4246-7-6-2-0-5"><tspan
         sodipodi:role="line"
         style="font-size:45px;line-height:1.25"
         x="1272.27"
         y="3217.5964"
         id="tspan3417">¿Por qué no</tspan><tspan
         sodipodi:role="line"
         style="font-size:45px;line-height:1.25"
         x="1272.27"
         y="3273.8464"
         id="tspan3421">aprendemos, para</tspan><tspan
         sodipodi:role="line"
         style="font-size:45px;line-height:1.25"
         x="1272.27"
         y="3330.0964"
         id="tspan3425">variar, hechizos</tspan><tspan
         sodipodi:role="line"
         style="font-size:45px;line-height:1.25"
         x="1272.27"
         y="3386.3464"
         id="tspan4447">de creación?</tspan></text>
    <text
       xml:space="preserve"
       style="font-style:normal;font-variant:normal;font-weight:normal;font-stretch:normal;line-height:0%;font-family:Lavi;-inkscape-font-specification:Lavi;text-align:center;letter-spacing:0px;word-spacing:0px;text-anchor:middle;fill:#000000;fill-opacity:1;stroke:none;stroke-width:1.60000002;stroke-miterlimit:4;stroke-dasharray:none"
       x="2089.9304"
       y="2459.3547"
       id="text4246-7-6-2-04"><tspan
         sodipodi:role="line"
         style="font-size:45px;line-height:1.25;stroke-width:1.60000002;stroke-miterlimit:4;stroke-dasharray:none"
         x="2097.8406"
         y="2459.3547"
         id="tspan3437">El próximo Concilio de Las </tspan><tspan
         sodipodi:role="line"
         style="font-size:45px;line-height:1.25;stroke-width:1.60000002;stroke-miterlimit:4;stroke-dasharray:none"
         x="2097.8406"
         y="2515.6047"
         id="tspan3441">Tres Lunas es pronto y </tspan><tspan
         sodipodi:role="line"
         style="font-size:45px;line-height:1.25;stroke-width:1.60000002;stroke-miterlimit:4;stroke-dasharray:none"
         x="2089.9304"
         y="2571.8547"
         id="tspan3443">también tus exámenes.</tspan><tspan
         sodipodi:role="line"
         style="font-size:45px;line-height:1.25;stroke:none;stroke-width:1.60000002;stroke-miterlimit:4;stroke-dasharray:none"
         x="2097.8406"
         y="2628.1047"
         id="tspan4986">¡Aprende! ¡<tspan
   style="stroke:#000000;stroke-width:1.60000002;stroke-miterlimit:4;stroke-dasharray:none;stroke-opacity:1"
   id="tspan874">Aprende! </tspan></tspan><tspan
         sodipodi:role="line"
         style="font-size:45px;line-height:1.25;stroke:#000000;stroke-width:1.60000002;stroke-miterlimit:4;stroke-dasharray:none;stroke-opacity:1"
         x="2089.9304"
         y="2684.3547"
         id="tspan3463">¡¡¡APRENDE!!! ¡¡¡Y DEJA DE</tspan><tspan
         sodipodi:role="line"
         style="font-size:45px;line-height:1.25;stroke:#000000;stroke-width:1.60000002;stroke-miterlimit:4;stroke-dasharray:none;stroke-opacity:1"
         x="2089.9304"
         y="2740.6047"
         id="tspan3467">DISTRAERTE CON ESAS</tspan><tspan
         sodipodi:role="line"
         style="font-size:45px;line-height:1.25;stroke:#000000;stroke-width:1.60000002;stroke-miterlimit:4;stroke-dasharray:none;stroke-opacity:1"
         x="2089.9304"
         y="2796.8547"
         id="tspan4456">IDEAS ESTÚPIDAS!!!</tspan></text>
    <flowRoot
       xml:space="preserve"
       id="flowRoot862"
       style="font-style:normal;font-variant:normal;font-weight:normal;font-stretch:normal;line-height:0.01%;font-family:Neuropolitical;-inkscape-font-specification:Neuropolitical;text-align:center;letter-spacing:0px;word-spacing:0px;writing-mode:lr-tb;text-anchor:middle;fill:#000000;fill-opacity:1;stroke:none;stroke-width:1px;stroke-linecap:butt;stroke-linejoin:miter;stroke-opacity:1"><flowRegion
         id="flowRegion864"><rect
           id="rect866"
           width="103.5"
           height="5.75"
           x="1181.625"
           y="3275.875" /></flowRegion><flowPara
         id="flowPara868"
         style="font-size:0.66666698px;line-height:3.18000007"> </flowPara></flowRoot>    <text
       xml:space="preserve"
       style="font-style:normal;font-variant:normal;font-weight:normal;font-stretch:normal;line-height:0%;font-family:Lavi;-inkscape-font-specification:Lavi;text-align:center;letter-spacing:0px;word-spacing:0px;text-anchor:middle;fill:#000000;fill-opacity:1;stroke:none;stroke-width:1"
       x="859.10339"
       y="678.29504"
       id="text4246-36"
       transform="skewX(-9.9961079)"><tspan
         sodipodi:role="line"
         style="font-size:55.18804169px;line-height:1.25;stroke-width:1"
         x="859.10339"
         y="678.29504"
         id="tspan837-3">¿¡¿Aquí?!?</tspan></text>
    <text
       xml:space="preserve"
       style="font-style:normal;font-variant:normal;font-weight:normal;font-stretch:normal;line-height:0%;font-family:Lavi;-inkscape-font-specification:Lavi;text-align:center;letter-spacing:0px;word-spacing:0px;text-anchor:middle;fill:#000000;fill-opacity:1;stroke:none;stroke-width:1.99999988;stroke-miterlimit:4;stroke-dasharray:none"
       x="1711.0228"
       y="1822.5054"
       id="text4246-3"
       transform="matrix(1.0148714,0,-0.1559129,0.98534652,0,0)"><tspan
         sodipodi:role="line"
         style="font-size:71.43344879px;line-height:1.25;stroke:#000000;stroke-width:1.99999988;stroke-miterlimit:4;stroke-dasharray:none;stroke-opacity:1"
         x="1711.0228"
         y="1822.5054"
         id="tspan4252-6">¡NO!</tspan></text>
  </g>
</svg>
