<?xml version="1.0" encoding="UTF-8" standalone="no"?>
<!-- Created with Inkscape (http://www.inkscape.org/) -->

<svg
   xmlns:dc="http://purl.org/dc/elements/1.1/"
   xmlns:cc="http://creativecommons.org/ns#"
   xmlns:rdf="http://www.w3.org/1999/02/22-rdf-syntax-ns#"
   xmlns:svg="http://www.w3.org/2000/svg"
   xmlns="http://www.w3.org/2000/svg"
   xmlns:xlink="http://www.w3.org/1999/xlink"
   xmlns:sodipodi="http://sodipodi.sourceforge.net/DTD/sodipodi-0.dtd"
   xmlns:inkscape="http://www.inkscape.org/namespaces/inkscape"
   id="svg2"
   version="1.1"
   inkscape:version="0.92.1 r15371"
   width="2481"
   height="3503"
   sodipodi:docname="E24P04.svg">
  <metadata
     id="metadata8">
    <rdf:RDF>
      <cc:Work
         rdf:about="">
        <dc:format>image/svg+xml</dc:format>
        <dc:type
           rdf:resource="http://purl.org/dc/dcmitype/StillImage" />
        <dc:title />
      </cc:Work>
    </rdf:RDF>
  </metadata>
  <defs
     id="defs6">
    <filter
       style="color-interpolation-filters:sRGB"
       id="filter4375-4-1-1-1-9-5-8"
       inkscape:label="Drop Shadow">
      <feFlood
         id="feFlood4377-7-9-0-8-1-7-3"
         flood-opacity="1"
         flood-color="rgb(200,55,55)"
         result="flood" />
      <feComposite
         id="feComposite4379-3-8-8-2-77-4-1"
         in2="SourceGraphic"
         in="flood"
         operator="in"
         result="composite1" />
      <feMorphology
         id="feMorphology4393-1-0-49-8-9-3-0"
         operator="dilate"
         radius="6.2000000000000002"
         result="result3" />
      <feComposite
         id="feComposite4385-9-5-7-0-8-8-7"
         in2="result3"
         in="SourceGraphic"
         operator="over"
         result="fbSourceGraphic" />
      <feColorMatrix
         result="fbSourceGraphicAlpha"
         in="fbSourceGraphic"
         values="0 0 0 -1 0 0 0 0 -1 0 0 0 0 -1 0 0 0 0 1 0"
         id="feColorMatrix4544" />
      <feTurbulence
         id="feTurbulence4546"
         type="fractalNoise"
         numOctaves="3"
         seed="37"
         baseFrequency="0.129 0.0050000000000000001"
         result="turbulence" />
      <feDisplacementMap
         id="feDisplacementMap4548"
         in2="turbulence"
         in="fbSourceGraphic"
         scale="6.6"
         yChannelSelector="G"
         xChannelSelector="R"
         result="fbSourceGraphic" />
      <feColorMatrix
         result="fbSourceGraphicAlpha"
         in="fbSourceGraphic"
         values="0 0 0 -1 0 0 0 0 -1 0 0 0 0 -1 0 0 0 0 1 0"
         id="feColorMatrix4670" />
      <feFlood
         id="feFlood4672"
         flood-opacity="1"
         flood-color="rgb(80,22,22)"
         result="flood"
         in="fbSourceGraphic" />
      <feComposite
         id="feComposite4674"
         in2="fbSourceGraphic"
         in="flood"
         operator="in"
         result="composite1" />
      <feGaussianBlur
         id="feGaussianBlur4676"
         in="composite1"
         stdDeviation="0"
         result="blur" />
      <feOffset
         id="feOffset4678"
         dx="6"
         dy="6"
         result="offset" />
      <feComposite
         id="feComposite4680"
         in2="offset"
         in="fbSourceGraphic"
         operator="over"
         result="composite2" />
    </filter>
    <filter
       style="color-interpolation-filters:sRGB"
       id="filter4375-4-1-1-1-9-5-8-0"
       inkscape:label="Drop Shadow">
      <feFlood
         id="feFlood4377-7-9-0-8-1-7-3-9"
         flood-opacity="1"
         flood-color="rgb(200,55,55)"
         result="flood" />
      <feComposite
         id="feComposite4379-3-8-8-2-77-4-1-3"
         in2="SourceGraphic"
         in="flood"
         operator="in"
         result="composite1" />
      <feMorphology
         id="feMorphology4393-1-0-49-8-9-3-0-6"
         operator="dilate"
         radius="6.2000000000000002"
         result="result3" />
      <feComposite
         id="feComposite4385-9-5-7-0-8-8-7-0"
         in2="result3"
         in="SourceGraphic"
         operator="over"
         result="fbSourceGraphic" />
      <feColorMatrix
         result="fbSourceGraphicAlpha"
         in="fbSourceGraphic"
         values="0 0 0 -1 0 0 0 0 -1 0 0 0 0 -1 0 0 0 0 1 0"
         id="feColorMatrix4544-6" />
      <feTurbulence
         id="feTurbulence4546-2"
         type="fractalNoise"
         numOctaves="3"
         seed="37"
         baseFrequency="0.129 0.0050000000000000001"
         result="turbulence" />
      <feDisplacementMap
         id="feDisplacementMap4548-6"
         in2="turbulence"
         in="fbSourceGraphic"
         scale="6.6"
         yChannelSelector="G"
         xChannelSelector="R"
         result="fbSourceGraphic" />
      <feColorMatrix
         result="fbSourceGraphicAlpha"
         in="fbSourceGraphic"
         values="0 0 0 -1 0 0 0 0 -1 0 0 0 0 -1 0 0 0 0 1 0"
         id="feColorMatrix4670-1" />
      <feFlood
         id="feFlood4672-8"
         flood-opacity="1"
         flood-color="rgb(80,22,22)"
         result="flood"
         in="fbSourceGraphic" />
      <feComposite
         id="feComposite4674-7"
         in2="fbSourceGraphic"
         in="flood"
         operator="in"
         result="composite1" />
      <feGaussianBlur
         id="feGaussianBlur4676-9"
         in="composite1"
         stdDeviation="0"
         result="blur" />
      <feOffset
         id="feOffset4678-2"
         dx="6"
         dy="6"
         result="offset" />
      <feComposite
         id="feComposite4680-0"
         in2="offset"
         in="fbSourceGraphic"
         operator="over"
         result="composite2" />
    </filter>
    <filter
       style="color-interpolation-filters:sRGB"
       id="filter4375-4-1-1-1-9-5-8-0-9"
       inkscape:label="Drop Shadow">
      <feFlood
         id="feFlood4377-7-9-0-8-1-7-3-9-2"
         flood-opacity="1"
         flood-color="rgb(200,55,55)"
         result="flood" />
      <feComposite
         id="feComposite4379-3-8-8-2-77-4-1-3-2"
         in2="SourceGraphic"
         in="flood"
         operator="in"
         result="composite1" />
      <feMorphology
         id="feMorphology4393-1-0-49-8-9-3-0-6-8"
         operator="dilate"
         radius="6.2000000000000002"
         result="result3" />
      <feComposite
         id="feComposite4385-9-5-7-0-8-8-7-0-9"
         in2="result3"
         in="SourceGraphic"
         operator="over"
         result="fbSourceGraphic" />
      <feColorMatrix
         result="fbSourceGraphicAlpha"
         in="fbSourceGraphic"
         values="0 0 0 -1 0 0 0 0 -1 0 0 0 0 -1 0 0 0 0 1 0"
         id="feColorMatrix4544-6-7" />
      <feTurbulence
         id="feTurbulence4546-2-3"
         type="fractalNoise"
         numOctaves="3"
         seed="37"
         baseFrequency="0.129 0.0050000000000000001"
         result="turbulence" />
      <feDisplacementMap
         id="feDisplacementMap4548-6-6"
         in2="turbulence"
         in="fbSourceGraphic"
         scale="6.6"
         yChannelSelector="G"
         xChannelSelector="R"
         result="fbSourceGraphic" />
      <feColorMatrix
         result="fbSourceGraphicAlpha"
         in="fbSourceGraphic"
         values="0 0 0 -1 0 0 0 0 -1 0 0 0 0 -1 0 0 0 0 1 0"
         id="feColorMatrix4670-1-1" />
      <feFlood
         id="feFlood4672-8-2"
         flood-opacity="1"
         flood-color="rgb(80,22,22)"
         result="flood"
         in="fbSourceGraphic" />
      <feComposite
         id="feComposite4674-7-9"
         in2="fbSourceGraphic"
         in="flood"
         operator="in"
         result="composite1" />
      <feGaussianBlur
         id="feGaussianBlur4676-9-3"
         in="composite1"
         stdDeviation="0"
         result="blur" />
      <feOffset
         id="feOffset4678-2-1"
         dx="6"
         dy="6"
         result="offset" />
      <feComposite
         id="feComposite4680-0-9"
         in2="offset"
         in="fbSourceGraphic"
         operator="over"
         result="composite2" />
    </filter>
  </defs>
  <sodipodi:namedview
     pagecolor="#ffffff"
     bordercolor="#666666"
     borderopacity="1"
     objecttolerance="10"
     gridtolerance="10"
     guidetolerance="10"
     inkscape:pageopacity="0"
     inkscape:pageshadow="2"
     inkscape:window-width="1858"
     inkscape:window-height="1057"
     id="namedview4"
     showgrid="false"
     inkscape:zoom="0.3478261"
     inkscape:cx="1402.7514"
     inkscape:cy="804.67631"
     inkscape:window-x="54"
     inkscape:window-y="-8"
     inkscape:window-maximized="1"
     inkscape:current-layer="layer1"
     inkscape:snap-global="false" />
  <g
     inkscape:groupmode="layer"
     id="layer2"
     inkscape:label="artwork"
     sodipodi:insensitive="true">
    <image
       sodipodi:absref="D:\Documents\GitHub\webcomics\ep24_The-Unity-Tree\lang\ja\../gfx_Pepper-and-Carrot_by-David-Revoy_E24P04.png"
       xlink:href="../gfx_Pepper-and-Carrot_by-David-Revoy_E24P04.png"
       y="0"
       x="0"
       id="image10"
       height="3503"
       width="2481" />
  </g>
  <g
     inkscape:groupmode="layer"
     id="layer3"
     inkscape:label="speechbubbles">
    <path
       style="color:#000000;display:inline;overflow:visible;visibility:visible;fill:#ffffff;fill-opacity:1;fill-rule:nonzero;stroke:none;stroke-width:1px;marker:none;enable-background:accumulate"
       d="m 275.07152,175.91178 c -6.17177,18.3782 -40.98141,19.91929 -53.7958,16.1836 25.83084,20.5594 24.93032,33.33329 -10.1407,35.31667 58.8147,37.05342 10.75212,31.44637 1.27211,40.84206 46.18043,12.76942 25.51883,28.6613 17.29711,44.48137 53.07983,0.54339 35.70922,25.90245 37.94644,46.09931 4.49988,-9.47726 25.87761,-38.33026 27.1639,-6.20439 35.10922,-30.64981 77.39738,-50.44806 80.75518,3.18923 14.1461,-26.98345 28.24974,-38.38776 27.16391,-6.20439 35.04959,-41.85853 66.5465,-26.79142 98.23007,-14.96063 8.32153,-12.63389 9.29115,-32.04321 36.21324,-27.49474 -3.77479,-12.52246 5.31523,-21.13035 25.84353,-26.24207 -27.27885,-7.56446 -32.30625,-15.36702 18.34445,-23.76378 -38.54221,-0.8122 -74.4831,-2.47623 -29.26468,-31.11163 -14.18627,-0.6929 -47.8447,23.20127 -32.15181,-46.72553 -24.39409,22.38601 -50.4204,34.74151 -83.05973,-12.15147 -15.44659,23.4268 -42.23834,35.01932 -53.89408,5.75738 -4.18931,12.47488 -21.56042,17.16648 -36.3072,17.73544 -5.70261,-4.95527 -11.58418,-11.68577 -17.72187,-20.50381 -10.03155,18.51555 -25.03765,31.02013 -53.89407,5.75738 z"
       id="path3549-3-7"
       inkscape:connector-curvature="0"
       sodipodi:nodetypes="cccccccccccccccccccc" />
    <path
       style="fill:#ffffff;fill-opacity:1;stroke:none;stroke-width:1"
       d="M 123.01333,483.31933 C 115.06581,340.6295 196.87911,267.73321 417.8202,274.21912 638.76129,280.7049 657.18886,337.52641 690.09694,385.2047 720.57455,471.69365 683.17508,570.67343 546.47773,625.80364 409.78037,680.93363 244.08289,636.73877 193.59795,596.20185 155.5723,565.66912 124.60282,520.61318 123.01333,483.31933 Z"
       id="path3238"
       inkscape:connector-curvature="0"
       sodipodi:nodetypes="csccsc" />
    <path
       style="color:#000000;display:inline;overflow:visible;visibility:visible;fill:#ffffff;fill-opacity:1;fill-rule:nonzero;stroke:none;stroke-width:0.99999994px;marker:none;enable-background:accumulate"
       d="M 596.21217,771.55964 C 501.79196,752.2835 437.83691,671.93971 443.09216,608.64557 l -19.71491,23.41057 c -31.12393,-38.05864 -21.85913,123.01364 172.83492,139.5035 z"
       id="path3072-1"
       inkscape:connector-curvature="0"
       sodipodi:nodetypes="cccc" />
    <path
       style="fill:#ffffff;fill-opacity:1;stroke:none;stroke-width:1"
       d="m 2298.6006,1747.7068 c 2.4509,77.1371 -43.7483,118.3553 -225.3146,120.1392 -114.157,1.1215 -190.8562,-43.4561 -209.3234,-96.7973 -18.4672,-53.3412 -30.5546,-125.2236 81.3052,-167.2363 111.8599,-42.0124 267.8887,-6.3924 309.6794,23.2839 31.4771,22.3524 41.2025,43.4734 43.6534,120.6105 z"
       id="path3238-4"
       inkscape:connector-curvature="0"
       sodipodi:nodetypes="zszcsz" />
    <path
       style="color:#000000;display:inline;overflow:visible;visibility:visible;fill:#ffffff;fill-opacity:1;fill-rule:nonzero;stroke:none;stroke-width:0.99999994px;marker:none;enable-background:accumulate"
       d="m 1974.4716,1468.2613 c 77.6678,42.426 102.483,122.4068 71.5737,169.065 l 27.5491,-12.0352 c 12.5064,38.13 70.6344,-87.2598 -99.1228,-157.0298 z"
       id="path3072-1-7"
       inkscape:connector-curvature="0"
       sodipodi:nodetypes="cccc" />
    <path
       style="color:#000000;display:inline;overflow:visible;visibility:visible;fill:#ffffff;fill-opacity:1;fill-rule:nonzero;stroke:none;stroke-width:0.99999994px;marker:none;enable-background:accumulate"
       d="m 45.771027,2108.6225 c 8.550619,-82.0934 80.269293,-139.3399 260.794613,-116.0631 96.69909,12.4682 210.42112,26.4271 199.02033,146.7366 -11.4009,120.3093 -180.9298,93.3883 -213.7073,94.8037 -32.77751,1.4156 -200.646487,13.5837 -228.976922,-28.7264 -17.734199,-26.4849 -18.555806,-71.2734 -17.130721,-96.7508 z"
       id="path4546"
       inkscape:connector-curvature="0"
       sodipodi:nodetypes="cssssc" />
    <path
       style="fill:#ffffff;fill-opacity:1;fill-rule:evenodd;stroke:none;stroke-width:1px;stroke-linecap:butt;stroke-linejoin:miter;stroke-opacity:1"
       d="m 809.03615,3299.3963 c -7.92969,-8.3218 1.91504,-18.7638 9.7643,-22.4599 8.79967,-6.8744 20.10555,-6.8194 30.67194,-6.3027 10.5112,1.352 18.21686,-5.27 25.0421,-12.1154 10.80286,-8.8817 26.48852,-11.9296 39.23642,-5.4527 9.47435,4.415 20.43022,9.8428 30.81501,4.778 12.38428,-5.1258 28.14801,-9.611 40.10194,-1.1515 8.50359,9.8244 22.62184,5.6471 33.02474,1.7701 13.3618,-4.5481 27.9856,-7.3093 41.7868,-2.8986 9.1508,2.5816 20.4994,3.8416 25.0139,13.568 5.449,10.6522 11.3111,23.368 24.0725,26.5604 9.0329,2.7568 22.0268,4.4272 24.3008,15.516 -0.2647,9.8954 -5.0474,19.6529 -9.3971,28.2714 -12.8602,11.1665 -32.5851,2.5793 -48.917,5.6713 -10.6787,1.9912 -20.7251,6.3681 -29.5683,12.6071 -14.4239,7.2786 -31.0319,1.3595 -46.03544,6.1031 -17.69378,4.4331 -36.68192,3.7873 -53.44645,11.7691 -19.08991,7.417 -41.54932,5.0132 -58.29983,-6.9075 -7.18905,-5.9244 -16.29573,-8.1452 -25.45004,-7.0123 -12.22797,0.3998 -18.50144,2.3025 -27.53341,-7.8758 -7.2404,-7.2593 -5.29269,-4.964 -10.11559,-13.0375 -5.04222,-7.9711 -16.75308,-9.7059 -20.27333,-19.1363 -2.69642,-7.794 6.65427,-14.1129 5.20604,-22.2643 z"
       id="path4367"
       inkscape:connector-curvature="0"
       sodipodi:nodetypes="ccccccccccccccccccccccc" />
    <path
       style="fill:#ffffff;fill-rule:evenodd;stroke:none;stroke-width:1px;stroke-linecap:butt;stroke-linejoin:miter;stroke-opacity:1"
       d="m 1605.781,3246.9359 c -12.1699,11.4769 -25.5961,24.3584 -44.149,28 -15.0876,1.9565 -26.6269,-9.6392 -31.8499,-20.2344 -1.6743,-3.1554 -3.121,-6.3912 -4.5318,-9.6347 -4.3835,12.0165 -10.4423,26.6343 -25.943,31.1093 -5.8489,1.0411 -12.17,-2.367 -16.2972,-4.0683 -12.9761,32.1359 -20.5531,22.5138 -37.6411,7.2398 9.7459,26.7848 -8.7248,38.1323 -22.4919,36.7289 -1.5723,0.1445 -5.6942,-1.4271 -3.1543,0.8223 27.2929,6.283 26.4234,19.5504 4.1608,31.2285 11.7003,-3.697 28.1689,-3.7176 35.2871,6.4297 3.0388,4.2736 3.893,9.3395 4.3416,14.2246 9.228,-7.8534 25.3137,-13.4118 36.9616,-5.9141 8.2073,4.4462 12.6326,13.5829 16.5987,19.5371 7.5025,-10.2823 17.9903,-22.6899 33.8933,-22.6679 6.8044,0.7087 12.0382,5.1892 15.453,9.8965 7.2131,-10.2342 23.7533,-17.3179 37.029,-10.8789 6.8467,2.7743 12.2215,7.4356 17.735,11.7148 0.3084,-11.3584 11.0988,-23.4604 25.6323,-22.4121 2.9443,-0.216 7.3525,0.6738 9.1446,0.5058 -9.9464,-9.5522 -12.8035,-25.0864 -2.5464,-35.2578 0.8637,-1.9073 6.3619,-5.1257 4.52,-5.8379 -18.0864,1.5435 -36.2989,-5.929 -23.227,-22.4257 -24.643,5.429 -36.8577,-12.8191 -26.8102,-40.1485 -0.7051,0.681 -1.4101,1.362 -2.1152,2.043 z"
       id="path1331"
       inkscape:connector-curvature="0"
       sodipodi:nodetypes="ccccccccccccccccccccccccc" />
    <path
       style="display:inline;fill:#ffffff;fill-rule:evenodd;stroke:none;stroke-width:1px;stroke-linecap:butt;stroke-linejoin:miter;stroke-opacity:1"
       d="m 1898.0036,3200.4328 c 49.5569,27.5237 77.7851,16.331 76.9345,-47.6471 23.6433,69.1361 40.0507,84.5986 49.7812,50.5348 31.3021,29.2792 50.853,21.0662 66.375,0 5.7854,27.0926 18.1924,16.1598 28.93,14.814 3.5365,6.1295 -8.61,21.3579 40.4619,1.0684 3.1787,8.113 7.4605,15.0997 36.2044,-2.8877 7.4467,32.9299 31.3389,-1.825 55.8154,-38.984 -15.2495,45.6837 -8.9262,52.1363 10.5596,34.6524 -8.9088,18.8129 -14.237,33.3763 19.6108,1.4439 -11.5878,34.7248 18.8127,10.8898 67.8834,-38.9839 -24.5459,36.8663 -89.6361,99.0018 -46.7641,93.8501 -5.9787,10.8684 -27.3047,20.3376 36.2045,37.5401 -11.8563,7.3751 -48.0533,-3.4021 -17.8585,27.824 4.0455,3.6501 -9.4979,5.879 16.35,15.4914 -15.2583,-0.6538 -24.6158,1.6824 -10.5597,15.8825 -27.8519,-0.7678 -17.4309,14.1637 3.017,33.2085 -40.3335,-24.429 -42.5531,-15.5505 -43.7472,-5.7754 -50.5496,-33.305 -53.5169,-22.8191 -60.3406,-15.8823 -24.6392,0.2598 -49.2785,-3.9343 -73.9177,33.2085 -6.4526,-23.1019 -19.3895,-40.8842 -73.9174,-24.5454 23.942,-29.3896 -10.1186,-10.6653 -36.2044,1.4438 14.2851,-36.7149 -21.9687,-12.619 -67.8836,23.1016 25.7122,-40.5435 -3.4908,-25.8982 -46.7641,2.8877 16.3499,-39.8299 -10.2776,-59.0922 -73.9176,-60.6416 30.4601,-14.3672 48.2226,-32.4479 16.5938,-64.9734 35.6547,9.5773 46.2901,0.6814 21.1193,-34.6523 38.8898,29.0016 21.208,-13.0639 6.0341,-51.9786 z"
       id="path4508"
       inkscape:connector-curvature="0"
       sodipodi:nodetypes="cccccccccccccccccccccccccccc" />
    <path
       style="fill:#ffffff;stroke:none;stroke-width:1"
       d="m 1864.5318,2287.2927 c -1.3098,-30.402 22.7422,-103.1204 204.0495,-109.7658 184.4587,-6.7609 268.3119,49.2394 272.2682,103.3145 6.2589,85.5453 -99.5672,81.6161 -236.6967,84.9466 -141.3657,3.4335 -231.8898,-1.599 -239.621,-78.4953 z"
       id="path3280"
       inkscape:connector-curvature="0"
       sodipodi:nodetypes="csssc" />
    <path
       style="fill:#ffffff;stroke:none;stroke-width:1"
       d="m 275.49999,2364.1412 c -57.36368,-17.8219 -75.18896,-52.9511 -94.63552,-123.2551 -11.78268,-42.5973 -0.16392,-57.6606 -0.16392,-57.6606 l -32.60052,18.4405 2.74247,17.0646 c 0,0 -5.84943,56.7167 33.30382,100.1244 18.54872,20.5643 47.19765,38.1415 91.35367,45.2862 z"
       id="path3063"
       inkscape:connector-curvature="0"
       sodipodi:nodetypes="cscccsc" />
  </g>
  <g
     inkscape:groupmode="layer"
     id="layer1"
     inkscape:label="txt">
    <text
       xml:space="preserve"
       style="font-style:normal;font-variant:normal;font-weight:normal;font-stretch:normal;font-size:16.23249817px;line-height:0%;font-family:'Rounded M+ 1c';-inkscape-font-specification:'Rounded M+ 1c, Medium';text-align:center;letter-spacing:0px;word-spacing:0px;text-anchor:middle;fill:#000000;fill-opacity:1;stroke:none;stroke-width:1"
       x="381.57074"
       y="275.12958"
       id="text4246"><tspan
         sodipodi:role="line"
         style="font-size:60.87186813px;line-height:1.25;stroke-width:1"
         x="381.57074"
         y="275.12958"
         id="tspan4252">やった!</tspan></text>
    <text
       xml:space="preserve"
       style="font-style:normal;font-variant:normal;font-weight:normal;font-stretch:normal;line-height:0%;font-family:'Rounded M+ 1c';-inkscape-font-specification:'Rounded M+ 1c, Medium';text-align:center;letter-spacing:0px;word-spacing:0px;text-anchor:middle;fill:#000000;fill-opacity:1;stroke:none"
       x="405.44434"
       y="367.86945"
       id="text4246-3"><tspan
         sodipodi:role="line"
         style="font-size:45px;line-height:1.25"
         x="405.44434"
         y="367.86945"
         id="tspan855">現実からは</tspan><tspan
         sodipodi:role="line"
         style="font-size:45px;line-height:1.25"
         x="405.44434"
         y="424.11945"
         id="tspan132">完全に切り離された</tspan><tspan
         sodipodi:role="line"
         style="font-size:45px;line-height:1.25"
         x="405.44434"
         y="480.36945"
         id="tspan134">図書室の一部だけを</tspan><tspan
         sodipodi:role="line"
         style="font-size:45px;line-height:1.25"
         x="405.44434"
         y="536.61945"
         id="tspan124">閉じ込めた器みたいな</tspan><tspan
         sodipodi:role="line"
         style="font-size:45px;line-height:1.25"
         x="405.44434"
         y="592.86945"
         id="tspan150">ものができた</tspan><tspan
         sodipodi:role="line"
         style="font-size:45px;line-height:1.25"
         x="405.44434"
         y="609.11444"
         id="tspan128" /></text>
    <text
       xml:space="preserve"
       style="font-style:normal;font-variant:normal;font-weight:normal;font-stretch:normal;line-height:0%;font-family:'Rounded M+ 1c';-inkscape-font-specification:'Rounded M+ 1c, Medium';text-align:center;letter-spacing:0px;word-spacing:0px;text-anchor:middle;fill:#000000;fill-opacity:1;stroke:none"
       x="2081.5991"
       y="1687.1895"
       id="text4246-3-7"><tspan
         sodipodi:role="line"
         style="font-size:45px;line-height:1.25"
         x="2081.5991"
         y="1687.1895"
         id="tspan907">魔法の練習には</tspan><tspan
         sodipodi:role="line"
         style="font-size:45px;line-height:1.25"
         x="2081.5991"
         y="1743.4395"
         id="tspan116">もってこいの</tspan><tspan
         sodipodi:role="line"
         style="font-size:45px;line-height:1.25"
         x="2081.5991"
         y="1799.6895"
         id="tspan118">箱庭ができた</tspan></text>
    <text
       xml:space="preserve"
       style="font-style:normal;font-variant:normal;font-weight:normal;font-stretch:normal;line-height:0%;font-family:'Rounded M+ 1c';-inkscape-font-specification:'Rounded M+ 1c, Medium';text-align:center;letter-spacing:0px;word-spacing:0px;text-anchor:middle;fill:#000000;fill-opacity:1;stroke:none"
       x="290.16486"
       y="2080.0325"
       id="text4246-3-7-9"><tspan
         sodipodi:role="line"
         style="font-size:45px;line-height:1.25"
         x="290.16486"
         y="2080.0325"
         id="tspan907-7">さあ</tspan><tspan
         sodipodi:role="line"
         style="font-size:45px;line-height:1.25"
         x="290.16486"
         y="2096.2776"
         id="tspan940" /><tspan
         sodipodi:role="line"
         style="font-size:45px;line-height:1.25"
         x="290.16486"
         y="2136.2825"
         id="tspan110">傑作を作る</tspan><tspan
         sodipodi:role="line"
         style="font-size:45px;line-height:1.25"
         x="290.16486"
         y="2192.5325"
         id="tspan114">時間!</tspan></text>
    <text
       xml:space="preserve"
       style="font-style:normal;font-variant:normal;font-weight:normal;font-stretch:normal;font-size:51.73136902px;line-height:0.01%;font-family:Arial;-inkscape-font-specification:Arial;letter-spacing:0.0088361px;word-spacing:0px;display:inline;fill:#faedf6;fill-opacity:1;stroke:#fff3fa;stroke-width:1.62600005;stroke-miterlimit:4;stroke-dasharray:none;stroke-opacity:1"
       x="1308.5319"
       y="3636.3977"
       id="text1105"
       transform="matrix(1.1211525,-0.41389973,-0.28840838,0.99841201,0,0)"><tspan
         sodipodi:role="line"
         x="1329.4746"
         y="3636.3977"
         id="tspan1103"
         style="font-style:normal;font-variant:normal;font-weight:normal;font-stretch:normal;font-family:'Rounded M+ 1c';-inkscape-font-specification:'Rounded M+ 1c, Medium';fill:#faedf6;fill-opacity:1;stroke:#fff3fa;stroke-width:1.62600005;stroke-miterlimit:4;stroke-dasharray:none;stroke-opacity:1"><tspan
           x="1329.4746"
           y="3636.3977"
           style="font-style:normal;font-variant:normal;font-weight:normal;font-stretch:normal;font-size:42.71826553px;font-family:'Rounded M+ 1c';-inkscape-font-specification:'Rounded M+ 1c, Medium';fill:#faedf6;fill-opacity:1;stroke:#fff3fa;stroke-width:1.62600005;stroke-miterlimit:4;stroke-dasharray:none;stroke-opacity:1"
           id="tspan1095">キラキラ</tspan></tspan></text>
    <text
       xml:space="preserve"
       style="font-style:normal;font-variant:normal;font-weight:normal;font-stretch:normal;line-height:0%;font-family:'Rounded M+ 1c';-inkscape-font-specification:'Rounded M+ 1c, Medium';letter-spacing:0px;word-spacing:0px;fill:#ffffff;fill-opacity:1;stroke:#c83737;stroke-width:0.99236238;stroke-miterlimit:4;stroke-dasharray:none;stroke-opacity:1;filter:url(#filter4375-4-1-1-1-9-5-8)"
       x="787.65729"
       y="1584.5073"
       id="text4580-6-0"
       transform="matrix(0.83434398,-0.14790328,-0.40858731,0.88612324,768.47254,904.8039)"><tspan
         sodipodi:role="line"
         id="tspan4582-1-1"
         x="787.65729"
         y="1584.5073"
         style="font-size:70px;line-height:1.25;fill:#ffffff;fill-opacity:1;stroke:#c83737;stroke-opacity:1"><tspan
           style="font-size:93.14950562px;fill:#ffffff;fill-opacity:1;stroke:#c83737;stroke-opacity:1"
           id="tspan4315-8">ポロンッ!</tspan><tspan
           style="font-size:114.73223114px;fill:#ffffff;fill-opacity:1;stroke:#c83737;stroke-opacity:1"
           id="tspan4313-2">!</tspan></tspan></text>
    <text
       xml:space="preserve"
       style="font-style:normal;font-variant:normal;font-weight:normal;font-stretch:normal;line-height:0%;font-family:'Rounded M+ 1c';-inkscape-font-specification:'Rounded M+ 1c, Medium';letter-spacing:0px;word-spacing:0px;fill:#ffffff;fill-opacity:1;stroke:#c83737;stroke-width:0.99236238;stroke-miterlimit:4;stroke-dasharray:none;stroke-opacity:1;filter:url(#filter4375-4-1-1-1-9-5-8-0)"
       x="787.65729"
       y="1584.5073"
       id="text4580-6-0-2"
       transform="matrix(0.83434398,-0.14790328,-0.40858731,0.88612324,1358.123,876.325)"><tspan
         sodipodi:role="line"
         id="tspan4582-1-1-3"
         x="787.65729"
         y="1584.5073"
         style="font-size:70px;line-height:1.25;fill:#ffffff;fill-opacity:1;stroke:#c83737;stroke-opacity:1"><tspan
           style="font-size:93.14950562px;fill:#ffffff;fill-opacity:1;stroke:#c83737;stroke-opacity:1"
           id="tspan4315-8-7">ドーンッ!</tspan><tspan
           style="font-size:114.73223114px;fill:#ffffff;fill-opacity:1;stroke:#c83737;stroke-opacity:1"
           id="tspan4313-2-5">!</tspan></tspan></text>
    <text
       xml:space="preserve"
       style="font-style:normal;font-variant:normal;font-weight:normal;font-stretch:normal;line-height:0%;font-family:'Rounded M+ 1c';-inkscape-font-specification:'Rounded M+ 1c, Medium';letter-spacing:0px;word-spacing:0px;fill:#ffffff;fill-opacity:1;stroke:#c83737;stroke-width:0.99236238;stroke-miterlimit:4;stroke-dasharray:none;stroke-opacity:1;filter:url(#filter4375-4-1-1-1-9-5-8-0-9)"
       x="787.65729"
       y="1584.5073"
       id="text4580-6-0-2-4"
       transform="matrix(0.83434398,-0.14790328,-0.40858731,0.88612324,1943.5394,867.70579)"><tspan
         sodipodi:role="line"
         id="tspan4582-1-1-3-7"
         x="787.65729"
         y="1584.5073"
         style="font-size:70px;line-height:1.25;fill:#ffffff;fill-opacity:1;stroke:#c83737;stroke-opacity:1"><tspan
           style="font-size:93.14950562px;fill:#ffffff;fill-opacity:1;stroke:#c83737;stroke-opacity:1"
           id="tspan4315-8-7-8">シャン!</tspan><tspan
           style="font-size:114.73223114px;fill:#ffffff;fill-opacity:1;stroke:#c83737;stroke-opacity:1"
           id="tspan4313-2-5-4">!</tspan></tspan></text>
    <text
       xml:space="preserve"
       style="font-style:normal;font-variant:normal;font-weight:normal;font-stretch:normal;line-height:0%;font-family:'Rounded M+ 1c';-inkscape-font-specification:'Rounded M+ 1c, Medium';text-align:center;letter-spacing:0px;word-spacing:0px;text-anchor:middle;fill:#000000;fill-opacity:1;stroke:none"
       x="970.4834"
       y="3324.7639"
       id="text4246-3-7-9-5"><tspan
         sodipodi:role="line"
         style="font-size:45px;line-height:1.25"
         x="970.4834"
         y="3324.7639"
         id="tspan1157">うーん 違う</tspan></text>
    <text
       xml:space="preserve"
       style="font-style:normal;font-variant:normal;font-weight:normal;font-stretch:normal;line-height:0%;font-family:'Rounded M+ 1c';-inkscape-font-specification:'Rounded M+ 1c, Medium';text-align:center;letter-spacing:0px;word-spacing:0px;text-anchor:middle;fill:#000000;fill-opacity:1;stroke:none"
       x="1547.7905"
       y="3333.6245"
       id="text4246-3-7-9-5-1"><tspan
         sodipodi:role="line"
         style="font-size:45px;line-height:1.25"
         x="1547.7905"
         y="3333.6245"
         id="tspan1157-0">何これ!</tspan></text>
    <text
       xml:space="preserve"
       style="font-style:normal;font-variant:normal;font-weight:normal;font-stretch:normal;line-height:0%;font-family:'Rounded M+ 1c';-inkscape-font-specification:'Rounded M+ 1c, Medium';text-align:center;letter-spacing:0px;word-spacing:0px;text-anchor:middle;fill:#000000;fill-opacity:1;stroke:none"
       x="2107.2458"
       y="2256.656"
       id="text4246-3-7-9-5-1-6"><tspan
         sodipodi:role="line"
         style="font-size:45px;line-height:1.25"
         x="2107.2458"
         y="2256.656"
         id="tspan1197">いい感じ!</tspan><tspan
         sodipodi:role="line"
         style="font-size:45px;line-height:1.25"
         x="2107.2458"
         y="2312.906"
         id="tspan108">でもちょっと小さい...</tspan></text>
    <text
       xml:space="preserve"
       style="font-style:normal;font-variant:normal;font-weight:normal;font-stretch:normal;font-size:11.64131737px;line-height:0%;font-family:'Rounded M+ 1c';-inkscape-font-specification:'Rounded M+ 1c, Medium';text-align:center;letter-spacing:0px;word-spacing:0px;text-anchor:middle;fill:#000000;fill-opacity:1;stroke:#000000;stroke-width:1.79999995;stroke-miterlimit:4;stroke-dasharray:none;stroke-opacity:1"
       x="2697.5513"
       y="3249.49"
       id="text4246-3-7-9-5-1-6-2"
       transform="matrix(0.987836,0,-0.17384645,1.0123138,0,0)"><tspan
         sodipodi:role="line"
         style="font-size:43.65493774px;line-height:1.25;stroke:#000000;stroke-width:1.79999995;stroke-miterlimit:4;stroke-dasharray:none;stroke-opacity:1"
         x="2703.605"
         y="3249.49"
         id="tspan1197-6">キャロット! </tspan><tspan
         sodipodi:role="line"
         style="font-size:43.65493774px;line-height:1.25;stroke:#000000;stroke-width:1.79999995;stroke-miterlimit:4;stroke-dasharray:none;stroke-opacity:1"
         x="2697.5513"
         y="3304.0586"
         id="tspan1222">触らないで!</tspan></text>
    <text
       xml:space="preserve"
       style="font-style:normal;font-variant:normal;font-weight:normal;font-stretch:normal;font-size:14.55866337px;line-height:0%;font-family:'Rounded M+ 1c';-inkscape-font-specification:'Rounded M+ 1c, Medium';text-align:center;letter-spacing:0px;word-spacing:0px;text-anchor:middle;fill:#f49474;fill-opacity:1;stroke:none;stroke-width:1"
       x="2459.8232"
       y="3396.968"
       id="text4246-3-7-9-5-1-6-2-1"
       transform="matrix(1.0600479,-0.23035956,-0.08957656,0.9628195,0,0)"><tspan
         sodipodi:role="line"
         style="font-size:54.59498596px;line-height:1.25;fill:#f49474;fill-opacity:1;stroke-width:0.82425153"
         x="2459.8232"
         y="3396.968"
         id="tspan1222-5">?</tspan></text>
  </g>
</svg>
